ARM GAS  C:\Users\Sil\AppData\Local\Temp\cc2CYAaq.s 			page 1


   1              		.syntax unified
   2              		.cpu cortex-m0
   3              		.fpu softvfp
   4              		.eabi_attribute 20, 1
   5              		.eabi_attribute 21, 1
   6              		.eabi_attribute 23, 3
   7              		.eabi_attribute 24, 1
   8              		.eabi_attribute 25, 1
   9              		.eabi_attribute 26, 1
  10              		.eabi_attribute 30, 1
  11              		.eabi_attribute 34, 0
  12              		.eabi_attribute 18, 4
  13              		.thumb
  14              		.syntax unified
  15              		.file	"cyPm.c"
  16              		.text
  17              	.Ltext0:
  18              		.cfi_sections	.debug_frame
  19              		.section	.text.CySysPmSleep,"ax",%progbits
  20              		.align	2
  21              		.global	CySysPmSleep
  22              		.code	16
  23              		.thumb_func
  24              		.type	CySysPmSleep, %function
  25              	CySysPmSleep:
  26              	.LFB0:
  27              		.file 1 "Generated_Source\\PSoC4\\cyPm.c"
   1:Generated_Source\PSoC4/cyPm.c **** /***************************************************************************//**
   2:Generated_Source\PSoC4/cyPm.c **** * \file cyPm.c
   3:Generated_Source\PSoC4/cyPm.c **** * \version 5.80
   4:Generated_Source\PSoC4/cyPm.c **** *
   5:Generated_Source\PSoC4/cyPm.c **** * \brief Provides an API for the power management.
   6:Generated_Source\PSoC4/cyPm.c **** *
   7:Generated_Source\PSoC4/cyPm.c **** * \note Documentation of the API's in this file is located in the System
   8:Generated_Source\PSoC4/cyPm.c **** * Reference Guide provided with PSoC Creator.
   9:Generated_Source\PSoC4/cyPm.c **** *
  10:Generated_Source\PSoC4/cyPm.c **** ********************************************************************************
  11:Generated_Source\PSoC4/cyPm.c **** * \copyright
  12:Generated_Source\PSoC4/cyPm.c **** * Copyright 2011-2018, Cypress Semiconductor Corporation.  All rights reserved.
  13:Generated_Source\PSoC4/cyPm.c **** * You may use this file only in accordance with the license, terms, conditions,
  14:Generated_Source\PSoC4/cyPm.c **** * disclaimers, and limitations in the end user license agreement accompanying
  15:Generated_Source\PSoC4/cyPm.c **** * the software package with which this file was provided.
  16:Generated_Source\PSoC4/cyPm.c **** *******************************************************************************/
  17:Generated_Source\PSoC4/cyPm.c **** 
  18:Generated_Source\PSoC4/cyPm.c **** #include "cyPm.h"
  19:Generated_Source\PSoC4/cyPm.c **** #include "CyLib.h"
  20:Generated_Source\PSoC4/cyPm.c **** #include "CyFlash.h"
  21:Generated_Source\PSoC4/cyPm.c **** 
  22:Generated_Source\PSoC4/cyPm.c **** 
  23:Generated_Source\PSoC4/cyPm.c **** /*******************************************************************************
  24:Generated_Source\PSoC4/cyPm.c **** * Function Name: CySysPmSleep
  25:Generated_Source\PSoC4/cyPm.c **** ****************************************************************************//**
  26:Generated_Source\PSoC4/cyPm.c **** *
  27:Generated_Source\PSoC4/cyPm.c **** * Puts the part into the Sleep state. This is a CPU-centric power mode.
  28:Generated_Source\PSoC4/cyPm.c **** * It means that the CPU has indicated that it is in the sleep mode and
  29:Generated_Source\PSoC4/cyPm.c **** * its main clock can be removed. It is identical to Active from a peripheral
  30:Generated_Source\PSoC4/cyPm.c **** * point of view. Any enabled interrupts can cause wakeup from the Sleep mode.
ARM GAS  C:\Users\Sil\AppData\Local\Temp\cc2CYAaq.s 			page 2


  31:Generated_Source\PSoC4/cyPm.c **** *
  32:Generated_Source\PSoC4/cyPm.c **** *******************************************************************************/
  33:Generated_Source\PSoC4/cyPm.c **** void CySysPmSleep(void)
  34:Generated_Source\PSoC4/cyPm.c **** {
  28              		.loc 1 34 0
  29              		.cfi_startproc
  30              		@ args = 0, pretend = 0, frame = 0
  31              		@ frame_needed = 0, uses_anonymous_args = 0
  32 0000 10B5     		push	{r4, lr}
  33              		.cfi_def_cfa_offset 8
  34              		.cfi_offset 4, -8
  35              		.cfi_offset 14, -4
  35:Generated_Source\PSoC4/cyPm.c ****     uint8 interruptState;
  36:Generated_Source\PSoC4/cyPm.c **** 
  37:Generated_Source\PSoC4/cyPm.c ****     interruptState = CyEnterCriticalSection();
  36              		.loc 1 37 0
  37 0002 FFF7FEFF 		bl	CyEnterCriticalSection
  38              	.LVL0:
  38:Generated_Source\PSoC4/cyPm.c **** 
  39:Generated_Source\PSoC4/cyPm.c ****     /* CPU enters Sleep mode upon execution of WFI */
  40:Generated_Source\PSoC4/cyPm.c ****     CY_PM_CPU_SCR_REG &= (uint32) (~CY_PM_CPU_SCR_SLEEPDEEP);
  39              		.loc 1 40 0
  40 0006 044A     		ldr	r2, .L2
  41 0008 1368     		ldr	r3, [r2]
  42 000a 0421     		movs	r1, #4
  43 000c 8B43     		bics	r3, r1
  44 000e 1360     		str	r3, [r2]
  41:Generated_Source\PSoC4/cyPm.c **** 
  42:Generated_Source\PSoC4/cyPm.c ****     /* Sleep and wait for interrupt */
  43:Generated_Source\PSoC4/cyPm.c ****     CY_PM_WFI;
  45              		.loc 1 43 0
  46              		.syntax divided
  47              	@ 43 "Generated_Source\PSoC4\cyPm.c" 1
  48 0010 30BF     		WFI 
  49              	
  50              	@ 0 "" 2
  44:Generated_Source\PSoC4/cyPm.c **** 
  45:Generated_Source\PSoC4/cyPm.c ****     CyExitCriticalSection(interruptState);
  51              		.loc 1 45 0
  52              		.thumb
  53              		.syntax unified
  54 0012 FFF7FEFF 		bl	CyExitCriticalSection
  55              	.LVL1:
  46:Generated_Source\PSoC4/cyPm.c **** }
  56              		.loc 1 46 0
  57              		@ sp needed
  58 0016 10BD     		pop	{r4, pc}
  59              	.L3:
  60              		.align	2
  61              	.L2:
  62 0018 10ED00E0 		.word	-536810224
  63              		.cfi_endproc
  64              	.LFE0:
  65              		.size	CySysPmSleep, .-CySysPmSleep
  66              		.section	.text.CySysPmDeepSleep,"ax",%progbits
  67              		.align	2
  68              		.global	CySysPmDeepSleep
ARM GAS  C:\Users\Sil\AppData\Local\Temp\cc2CYAaq.s 			page 3


  69              		.code	16
  70              		.thumb_func
  71              		.type	CySysPmDeepSleep, %function
  72              	CySysPmDeepSleep:
  73              	.LFB1:
  47:Generated_Source\PSoC4/cyPm.c **** 
  48:Generated_Source\PSoC4/cyPm.c **** 
  49:Generated_Source\PSoC4/cyPm.c **** /*******************************************************************************
  50:Generated_Source\PSoC4/cyPm.c **** * Function Name: CySysPmDeepSleep
  51:Generated_Source\PSoC4/cyPm.c **** ****************************************************************************//**
  52:Generated_Source\PSoC4/cyPm.c **** *
  53:Generated_Source\PSoC4/cyPm.c **** * Puts the part into the Deep Sleep state. If the firmware attempts to enter
  54:Generated_Source\PSoC4/cyPm.c **** * this mode before the system is ready (that is, when
  55:Generated_Source\PSoC4/cyPm.c **** * PWR_CONTROL.LPM_READY = 0), then the device will go into the Sleep mode
  56:Generated_Source\PSoC4/cyPm.c **** * instead and automatically enter the originally intended mode when the
  57:Generated_Source\PSoC4/cyPm.c **** * holdoff expires.
  58:Generated_Source\PSoC4/cyPm.c **** *
  59:Generated_Source\PSoC4/cyPm.c **** * The wakeup occurs when an interrupt is received from a DeepSleep or
  60:Generated_Source\PSoC4/cyPm.c **** * Hibernate peripheral. For more details, see a corresponding
  61:Generated_Source\PSoC4/cyPm.c **** * peripheral's datasheet.
  62:Generated_Source\PSoC4/cyPm.c **** *
  63:Generated_Source\PSoC4/cyPm.c **** *******************************************************************************/
  64:Generated_Source\PSoC4/cyPm.c **** void CySysPmDeepSleep(void)
  65:Generated_Source\PSoC4/cyPm.c **** {
  74              		.loc 1 65 0
  75              		.cfi_startproc
  76              		@ args = 0, pretend = 0, frame = 8
  77              		@ frame_needed = 0, uses_anonymous_args = 0
  78 0000 F0B5     		push	{r4, r5, r6, r7, lr}
  79              		.cfi_def_cfa_offset 20
  80              		.cfi_offset 4, -20
  81              		.cfi_offset 5, -16
  82              		.cfi_offset 6, -12
  83              		.cfi_offset 7, -8
  84              		.cfi_offset 14, -4
  85 0002 83B0     		sub	sp, sp, #12
  86              		.cfi_def_cfa_offset 32
  66:Generated_Source\PSoC4/cyPm.c ****     uint8 interruptState;
  67:Generated_Source\PSoC4/cyPm.c ****     #if(CY_IP_SRSSV2)
  68:Generated_Source\PSoC4/cyPm.c ****         volatile uint32 clkSelectReg;
  69:Generated_Source\PSoC4/cyPm.c ****     #endif /* (CY_IP_SRSSV2) */
  70:Generated_Source\PSoC4/cyPm.c ****     
  71:Generated_Source\PSoC4/cyPm.c ****     #if(CY_IP_ECO_SRSSLT)
  72:Generated_Source\PSoC4/cyPm.c ****         volatile uint32 pllResoreFlag = 0u;
  73:Generated_Source\PSoC4/cyPm.c ****     #endif /* (CY_IP_ECO_SRSSLT) */
  74:Generated_Source\PSoC4/cyPm.c **** 
  75:Generated_Source\PSoC4/cyPm.c ****     #if (CY_IP_IMO_TRIMMABLE_BY_WCO)
  76:Generated_Source\PSoC4/cyPm.c ****         uint32 regTmp = 0u;
  77:Generated_Source\PSoC4/cyPm.c ****     #endif /* (CY_IP_IMO_TRIMMABLE_BY_WCO) */
  78:Generated_Source\PSoC4/cyPm.c ****     
  79:Generated_Source\PSoC4/cyPm.c ****     interruptState = CyEnterCriticalSection();
  87              		.loc 1 79 0
  88 0004 FFF7FEFF 		bl	CyEnterCriticalSection
  89              	.LVL2:
  90 0008 0400     		movs	r4, r0
  91              	.LVL3:
  80:Generated_Source\PSoC4/cyPm.c **** 
ARM GAS  C:\Users\Sil\AppData\Local\Temp\cc2CYAaq.s 			page 4


  81:Generated_Source\PSoC4/cyPm.c ****     #if(CY_IP_ECO_SRSSLT)
  82:Generated_Source\PSoC4/cyPm.c ****         if(0u != (CY_SYS_ECO_CLK_SELECT_REG & CY_SYS_ECO_CLK_SELECT_ECO_PLL_MASK))
  83:Generated_Source\PSoC4/cyPm.c ****         {
  84:Generated_Source\PSoC4/cyPm.c ****             pllResoreFlag = 1u;
  85:Generated_Source\PSoC4/cyPm.c ****             
  86:Generated_Source\PSoC4/cyPm.c ****             /* Set default state = IMO for HFCLK_SEL bit mask */
  87:Generated_Source\PSoC4/cyPm.c ****             CY_SYS_CLK_SELECT_REG &= (uint32)(~CY_SYS_CLK_SELECT_DIRECT_SEL_MASK);
  88:Generated_Source\PSoC4/cyPm.c ****         }
  89:Generated_Source\PSoC4/cyPm.c ****     #endif /* (CY_IP_ECO_SRSSLT) */
  90:Generated_Source\PSoC4/cyPm.c **** 
  91:Generated_Source\PSoC4/cyPm.c ****     #if(CY_IP_SRSSV2)
  92:Generated_Source\PSoC4/cyPm.c ****         /* Device enters DeepSleep mode when CPU asserts SLEEPDEEP signal */
  93:Generated_Source\PSoC4/cyPm.c ****         CY_PM_PWR_CONTROL_REG &= (uint32) (~CY_PM_PWR_CONTROL_HIBERNATE);
  92              		.loc 1 93 0
  93 000a 134A     		ldr	r2, .L5
  94 000c 1368     		ldr	r3, [r2]
  95 000e 5B00     		lsls	r3, r3, #1
  96 0010 5B08     		lsrs	r3, r3, #1
  97 0012 1360     		str	r3, [r2]
  94:Generated_Source\PSoC4/cyPm.c ****     #endif /* (CY_IP_SRSSV2) */
  95:Generated_Source\PSoC4/cyPm.c **** 
  96:Generated_Source\PSoC4/cyPm.c ****     #if (CY_IP_CPUSS && CY_IP_SRSSV2)
  97:Generated_Source\PSoC4/cyPm.c ****         CY_PM_CPUSS_CONFIG_REG |= CY_PM_CPUSS_CONFIG_FLSH_ACC_BYPASS;
  98              		.loc 1 97 0
  99 0014 8025     		movs	r5, #128
 100 0016 ED05     		lsls	r5, r5, #23
 101 0018 2B68     		ldr	r3, [r5]
 102 001a 0226     		movs	r6, #2
 103 001c 3343     		orrs	r3, r6
 104 001e 2B60     		str	r3, [r5]
  98:Generated_Source\PSoC4/cyPm.c ****     #endif /* (CY_IP_CPUSS && CY_IP_SRSSV2) */
  99:Generated_Source\PSoC4/cyPm.c ****     
 100:Generated_Source\PSoC4/cyPm.c ****     #if (CY_IP_IMO_TRIMMABLE_BY_WCO)
 101:Generated_Source\PSoC4/cyPm.c ****         if (0u != (CY_SYS_CLK_WCO_CONFIG_REG & CY_SYS_CLK_WCO_CONFIG_DPLL_ENABLE))
 102:Generated_Source\PSoC4/cyPm.c ****         {
 103:Generated_Source\PSoC4/cyPm.c ****             regTmp  = CY_SYS_CLK_WCO_DPLL_REG & ~(CY_SYS_CLK_WCO_CONFIG_DPLL_LF_LIMIT_MASK);
 104:Generated_Source\PSoC4/cyPm.c ****             CY_SYS_CLK_WCO_DPLL_REG = (regTmp | (((CY_SYS_CLK_IMO_TRIM1_REG + CY_PM_WCO_DPLL_LF_LIM
 105:Generated_Source\PSoC4/cyPm.c ****                                                   CY_SYS_CLK_WCO_CONFIG_DPLL_LF_LIMIT_MAX) << 
 106:Generated_Source\PSoC4/cyPm.c ****                                                  CY_SYS_CLK_WCO_CONFIG_DPLL_LF_LIMIT_SHIFT));
 107:Generated_Source\PSoC4/cyPm.c ****         }
 108:Generated_Source\PSoC4/cyPm.c ****     #endif /* (CY_IP_IMO_TRIMMABLE_BY_WCO) */
 109:Generated_Source\PSoC4/cyPm.c **** 
 110:Generated_Source\PSoC4/cyPm.c ****     /* Adjust delay to wait for references to settle on wakeup from Deep Sleep */
 111:Generated_Source\PSoC4/cyPm.c ****     CY_PM_PWR_KEY_DELAY_REG = CY_SFLASH_DPSLP_KEY_DELAY_REG;
 105              		.loc 1 111 0
 106 0020 0E4B     		ldr	r3, .L5+4
 107 0022 1B88     		ldrh	r3, [r3]
 108 0024 9BB2     		uxth	r3, r3
 109 0026 0E4A     		ldr	r2, .L5+8
 110 0028 1360     		str	r3, [r2]
 112:Generated_Source\PSoC4/cyPm.c **** 
 113:Generated_Source\PSoC4/cyPm.c ****     /* CPU enters DeepSleep/Hibernate mode upon execution of WFI */
 114:Generated_Source\PSoC4/cyPm.c ****     CY_PM_CPU_SCR_REG |= CY_PM_CPU_SCR_SLEEPDEEP;
 111              		.loc 1 114 0
 112 002a 0E4A     		ldr	r2, .L5+12
 113 002c 1168     		ldr	r1, [r2]
 114 002e 0423     		movs	r3, #4
ARM GAS  C:\Users\Sil\AppData\Local\Temp\cc2CYAaq.s 			page 5


 115 0030 0B43     		orrs	r3, r1
 116 0032 1360     		str	r3, [r2]
 115:Generated_Source\PSoC4/cyPm.c **** 
 116:Generated_Source\PSoC4/cyPm.c ****     #if(CY_IP_SRSSV2)
 117:Generated_Source\PSoC4/cyPm.c ****         /* Preserve system clock configuration and
 118:Generated_Source\PSoC4/cyPm.c ****         * reduce sysclk to <=12 MHz (Cypress ID #158710, #179888).
 119:Generated_Source\PSoC4/cyPm.c ****         */
 120:Generated_Source\PSoC4/cyPm.c ****         clkSelectReg = CY_SYS_CLK_SELECT_REG;
 117              		.loc 1 120 0
 118 0034 0C4F     		ldr	r7, .L5+16
 119 0036 3B68     		ldr	r3, [r7]
 120 0038 0193     		str	r3, [sp, #4]
 121:Generated_Source\PSoC4/cyPm.c ****         CySysClkWriteSysclkDiv(CY_SYS_CLK_SYSCLK_DIV4);
 121              		.loc 1 121 0
 122 003a 0220     		movs	r0, #2
 123 003c FFF7FEFF 		bl	CySysClkWriteSysclkDiv
 124              	.LVL4:
 122:Generated_Source\PSoC4/cyPm.c ****     #endif /* (CY_IP_SRSSV2) */
 123:Generated_Source\PSoC4/cyPm.c ****     
 124:Generated_Source\PSoC4/cyPm.c ****     /* Sleep and wait for interrupt */
 125:Generated_Source\PSoC4/cyPm.c ****     CY_PM_WFI;
 125              		.loc 1 125 0
 126              		.syntax divided
 127              	@ 125 "Generated_Source\PSoC4\cyPm.c" 1
 128 0040 30BF     		WFI 
 129              	
 130              	@ 0 "" 2
 126:Generated_Source\PSoC4/cyPm.c **** 
 127:Generated_Source\PSoC4/cyPm.c ****     #if(CY_IP_SRSSV2)
 128:Generated_Source\PSoC4/cyPm.c ****         /* Restore system clock configuration */
 129:Generated_Source\PSoC4/cyPm.c ****         CY_SYS_CLK_SELECT_REG = clkSelectReg;
 131              		.loc 1 129 0
 132              		.thumb
 133              		.syntax unified
 134 0042 019B     		ldr	r3, [sp, #4]
 135 0044 3B60     		str	r3, [r7]
 130:Generated_Source\PSoC4/cyPm.c ****     #endif /* (CY_IP_SRSSV2) */
 131:Generated_Source\PSoC4/cyPm.c **** 
 132:Generated_Source\PSoC4/cyPm.c ****     #if (CY_IP_IMO_TRIMMABLE_BY_WCO)
 133:Generated_Source\PSoC4/cyPm.c ****         if (0u != (CY_SYS_CLK_WCO_CONFIG_REG & CY_SYS_CLK_WCO_CONFIG_DPLL_ENABLE))
 134:Generated_Source\PSoC4/cyPm.c ****         {
 135:Generated_Source\PSoC4/cyPm.c ****             CyDelayUs(CY_PM_WCO_DPLL_WAKEUP_DELAY);
 136:Generated_Source\PSoC4/cyPm.c ****             regTmp  = CY_SYS_CLK_WCO_DPLL_REG & ~(CY_SYS_CLK_WCO_CONFIG_DPLL_LF_LIMIT_MASK);
 137:Generated_Source\PSoC4/cyPm.c ****             CY_SYS_CLK_WCO_DPLL_REG = (regTmp | (CY_SYS_CLK_WCO_CONFIG_DPLL_LF_LIMIT_MAX << 
 138:Generated_Source\PSoC4/cyPm.c ****                                                  CY_SYS_CLK_WCO_CONFIG_DPLL_LF_LIMIT_SHIFT));
 139:Generated_Source\PSoC4/cyPm.c ****         }
 140:Generated_Source\PSoC4/cyPm.c ****     #endif /* (CY_IP_IMO_TRIMMABLE_BY_WCO) */    
 141:Generated_Source\PSoC4/cyPm.c ****     
 142:Generated_Source\PSoC4/cyPm.c ****     #if (CY_IP_CPUSS && CY_IP_SRSSV2)
 143:Generated_Source\PSoC4/cyPm.c ****         CY_PM_CPUSS_CONFIG_REG &= (uint32) (~CY_PM_CPUSS_CONFIG_FLSH_ACC_BYPASS);
 136              		.loc 1 143 0
 137 0046 2B68     		ldr	r3, [r5]
 138 0048 B343     		bics	r3, r6
 139 004a 2B60     		str	r3, [r5]
 144:Generated_Source\PSoC4/cyPm.c ****     #endif /* (CY_IP_CPUSS && CY_IP_SRSSV2) */
 145:Generated_Source\PSoC4/cyPm.c **** 
 146:Generated_Source\PSoC4/cyPm.c ****     #if(CY_IP_ECO_SRSSLT)
ARM GAS  C:\Users\Sil\AppData\Local\Temp\cc2CYAaq.s 			page 6


 147:Generated_Source\PSoC4/cyPm.c ****         if(0u != pllResoreFlag)
 148:Generated_Source\PSoC4/cyPm.c ****         {
 149:Generated_Source\PSoC4/cyPm.c ****             CySysClkWriteHfclkDirect(CY_SYS_CLK_HFCLK_PLL0);
 150:Generated_Source\PSoC4/cyPm.c ****         }
 151:Generated_Source\PSoC4/cyPm.c ****     #endif /* (CY_IP_ECO_SRSSLT) */    
 152:Generated_Source\PSoC4/cyPm.c **** 
 153:Generated_Source\PSoC4/cyPm.c ****     CyExitCriticalSection(interruptState);
 140              		.loc 1 153 0
 141 004c 2000     		movs	r0, r4
 142 004e FFF7FEFF 		bl	CyExitCriticalSection
 143              	.LVL5:
 154:Generated_Source\PSoC4/cyPm.c **** }
 144              		.loc 1 154 0
 145 0052 03B0     		add	sp, sp, #12
 146              		@ sp needed
 147              	.LVL6:
 148 0054 F0BD     		pop	{r4, r5, r6, r7, pc}
 149              	.L6:
 150 0056 C046     		.align	2
 151              	.L5:
 152 0058 00000B40 		.word	1074462720
 153 005c 52F1FF0F 		.word	268431698
 154 0060 0C000B40 		.word	1074462732
 155 0064 10ED00E0 		.word	-536810224
 156 0068 00010B40 		.word	1074462976
 157              		.cfi_endproc
 158              	.LFE1:
 159              		.size	CySysPmDeepSleep, .-CySysPmDeepSleep
 160              		.section	.text.CySysPmHibernate,"ax",%progbits
 161              		.align	2
 162              		.global	CySysPmHibernate
 163              		.code	16
 164              		.thumb_func
 165              		.type	CySysPmHibernate, %function
 166              	CySysPmHibernate:
 167              	.LFB2:
 155:Generated_Source\PSoC4/cyPm.c **** 
 156:Generated_Source\PSoC4/cyPm.c **** 
 157:Generated_Source\PSoC4/cyPm.c **** #if(CY_IP_SRSSV2)
 158:Generated_Source\PSoC4/cyPm.c **** 
 159:Generated_Source\PSoC4/cyPm.c ****     /*******************************************************************************
 160:Generated_Source\PSoC4/cyPm.c ****     * Function Name: CySysPmHibernate
 161:Generated_Source\PSoC4/cyPm.c ****     ****************************************************************************//**
 162:Generated_Source\PSoC4/cyPm.c ****     *
 163:Generated_Source\PSoC4/cyPm.c ****     * Puts the part into the Hibernate state. Only SRAM and UDBs are retained;
 164:Generated_Source\PSoC4/cyPm.c ****     * most internal supplies are off. Wakeup is possible from a pin or a hibernate
 165:Generated_Source\PSoC4/cyPm.c ****     * comparator only.
 166:Generated_Source\PSoC4/cyPm.c ****     *
 167:Generated_Source\PSoC4/cyPm.c ****     * It is expected that the firmware has already frozen the IO-Cells using
 168:Generated_Source\PSoC4/cyPm.c ****     * CySysPmFreezeIo() function before the call to this function. If this is
 169:Generated_Source\PSoC4/cyPm.c ****     * omitted, the IO-cells will be frozen in the same way as they are
 170:Generated_Source\PSoC4/cyPm.c ****     * in the Active to Deep Sleep transition, but will lose their state on wake up
 171:Generated_Source\PSoC4/cyPm.c ****     * (because of the reset occurring at that time).
 172:Generated_Source\PSoC4/cyPm.c ****     *
 173:Generated_Source\PSoC4/cyPm.c ****     * Because all the CPU state is lost, the CPU will start up at the reset vector.
 174:Generated_Source\PSoC4/cyPm.c ****     * To save the firmware state through the Hibernate low power mode, a
 175:Generated_Source\PSoC4/cyPm.c ****     * corresponding variable should be defined with CY_NOINIT attribute. It
ARM GAS  C:\Users\Sil\AppData\Local\Temp\cc2CYAaq.s 			page 7


 176:Generated_Source\PSoC4/cyPm.c ****     * prevents data from being initialized to zero on startup. The interrupt
 177:Generated_Source\PSoC4/cyPm.c ****     * cause of the hibernate peripheral is retained, such that it can be either
 178:Generated_Source\PSoC4/cyPm.c ****     * read by the firmware or cause an interrupt after the firmware has booted and
 179:Generated_Source\PSoC4/cyPm.c ****     * enabled the corresponding interrupt. To distinguish the wakeup from
 180:Generated_Source\PSoC4/cyPm.c ****     * the Hibernate mode and the general Reset event, the
 181:Generated_Source\PSoC4/cyPm.c ****     * \ref CySysPmGetResetReason() function could be used.
 182:Generated_Source\PSoC4/cyPm.c ****     *
 183:Generated_Source\PSoC4/cyPm.c ****     *******************************************************************************/
 184:Generated_Source\PSoC4/cyPm.c ****     void CySysPmHibernate(void)
 185:Generated_Source\PSoC4/cyPm.c ****     {
 168              		.loc 1 185 0
 169              		.cfi_startproc
 170              		@ args = 0, pretend = 0, frame = 0
 171              		@ frame_needed = 0, uses_anonymous_args = 0
 172 0000 10B5     		push	{r4, lr}
 173              		.cfi_def_cfa_offset 8
 174              		.cfi_offset 4, -8
 175              		.cfi_offset 14, -4
 186:Generated_Source\PSoC4/cyPm.c ****         uint8 interruptState;
 187:Generated_Source\PSoC4/cyPm.c **** 
 188:Generated_Source\PSoC4/cyPm.c ****         interruptState = CyEnterCriticalSection();
 176              		.loc 1 188 0
 177 0002 FFF7FEFF 		bl	CyEnterCriticalSection
 178              	.LVL7:
 189:Generated_Source\PSoC4/cyPm.c **** 
 190:Generated_Source\PSoC4/cyPm.c ****         #if (CY_IP_HOBTO_DEVICE)
 191:Generated_Source\PSoC4/cyPm.c ****             /* Disable input buffers for all ports */
 192:Generated_Source\PSoC4/cyPm.c ****             CySysPmHibPinsDisableInputBuf();
 193:Generated_Source\PSoC4/cyPm.c ****         #endif /* (CY_IP_HOBTO_DEVICE) */
 194:Generated_Source\PSoC4/cyPm.c **** 
 195:Generated_Source\PSoC4/cyPm.c ****         /* Device enters Hibernate mode when CPU asserts SLEEPDEEP signal */
 196:Generated_Source\PSoC4/cyPm.c ****         CY_PM_PWR_CONTROL_REG |= CY_PM_PWR_CONTROL_HIBERNATE;
 179              		.loc 1 196 0
 180 0006 0D4A     		ldr	r2, .L8
 181 0008 1368     		ldr	r3, [r2]
 182 000a 8021     		movs	r1, #128
 183 000c 0906     		lsls	r1, r1, #24
 184 000e 0B43     		orrs	r3, r1
 185 0010 1360     		str	r3, [r2]
 197:Generated_Source\PSoC4/cyPm.c **** 
 198:Generated_Source\PSoC4/cyPm.c ****         /* Adjust delay to wait for references to settle on wakeup from hibernate */
 199:Generated_Source\PSoC4/cyPm.c ****         CY_PM_PWR_KEY_DELAY_REG = CY_SFLASH_HIB_KEY_DELAY_REG;
 186              		.loc 1 199 0
 187 0012 0B4B     		ldr	r3, .L8+4
 188 0014 1B88     		ldrh	r3, [r3]
 189 0016 9BB2     		uxth	r3, r3
 190 0018 0A4A     		ldr	r2, .L8+8
 191 001a 1360     		str	r3, [r2]
 200:Generated_Source\PSoC4/cyPm.c **** 
 201:Generated_Source\PSoC4/cyPm.c ****         /* CPU enters DeepSleep/Hibernate mode upon execution of WFI */
 202:Generated_Source\PSoC4/cyPm.c ****         CY_PM_CPU_SCR_REG |= CY_PM_CPU_SCR_SLEEPDEEP;
 192              		.loc 1 202 0
 193 001c 0A4A     		ldr	r2, .L8+12
 194 001e 1168     		ldr	r1, [r2]
 195 0020 0423     		movs	r3, #4
 196 0022 0B43     		orrs	r3, r1
 197 0024 1360     		str	r3, [r2]
ARM GAS  C:\Users\Sil\AppData\Local\Temp\cc2CYAaq.s 			page 8


 203:Generated_Source\PSoC4/cyPm.c **** 
 204:Generated_Source\PSoC4/cyPm.c ****         /* Save token that will retain through a STOP/WAKEUP sequence
 205:Generated_Source\PSoC4/cyPm.c ****          * thus could be used by CySysPmGetResetReason() to differentiate
 206:Generated_Source\PSoC4/cyPm.c ****          * WAKEUP from a general RESET event.
 207:Generated_Source\PSoC4/cyPm.c ****          */
 208:Generated_Source\PSoC4/cyPm.c ****         CY_PM_PWR_STOP_REG = (CY_PM_PWR_STOP_REG & (uint32)(~CY_PM_PWR_STOP_TOKEN_MASK)) | CY_PM_PW
 198              		.loc 1 208 0
 199 0026 0949     		ldr	r1, .L8+16
 200 0028 0B68     		ldr	r3, [r1]
 201 002a FF22     		movs	r2, #255
 202 002c 9343     		bics	r3, r2
 203 002e 0E3A     		subs	r2, r2, #14
 204 0030 1343     		orrs	r3, r2
 205 0032 0B60     		str	r3, [r1]
 209:Generated_Source\PSoC4/cyPm.c **** 
 210:Generated_Source\PSoC4/cyPm.c ****         /* Sleep and wait for interrupt. Wakeup from Hibernate is performed
 211:Generated_Source\PSoC4/cyPm.c ****          * through RESET state, causing a normal Boot procedure to occur.
 212:Generated_Source\PSoC4/cyPm.c ****          * The WFI instruction doesn't put the core to sleep if its wake condition
 213:Generated_Source\PSoC4/cyPm.c ****          * is true when the instruction is executed.
 214:Generated_Source\PSoC4/cyPm.c ****          */
 215:Generated_Source\PSoC4/cyPm.c ****         CY_PM_WFI;
 206              		.loc 1 215 0
 207              		.syntax divided
 208              	@ 215 "Generated_Source\PSoC4\cyPm.c" 1
 209 0034 30BF     		WFI 
 210              	
 211              	@ 0 "" 2
 216:Generated_Source\PSoC4/cyPm.c **** 
 217:Generated_Source\PSoC4/cyPm.c ****         CyExitCriticalSection(interruptState);
 212              		.loc 1 217 0
 213              		.thumb
 214              		.syntax unified
 215 0036 FFF7FEFF 		bl	CyExitCriticalSection
 216              	.LVL8:
 218:Generated_Source\PSoC4/cyPm.c ****     }
 217              		.loc 1 218 0
 218              		@ sp needed
 219 003a 10BD     		pop	{r4, pc}
 220              	.L9:
 221              		.align	2
 222              	.L8:
 223 003c 00000B40 		.word	1074462720
 224 0040 50F1FF0F 		.word	268431696
 225 0044 0C000B40 		.word	1074462732
 226 0048 10ED00E0 		.word	-536810224
 227 004c 2C000B40 		.word	1074462764
 228              		.cfi_endproc
 229              	.LFE2:
 230              		.size	CySysPmHibernate, .-CySysPmHibernate
 231              		.section	.text.CySysPmSetWakeupPolarity,"ax",%progbits
 232              		.align	2
 233              		.global	CySysPmSetWakeupPolarity
 234              		.code	16
 235              		.thumb_func
 236              		.type	CySysPmSetWakeupPolarity, %function
 237              	CySysPmSetWakeupPolarity:
 238              	.LFB4:
ARM GAS  C:\Users\Sil\AppData\Local\Temp\cc2CYAaq.s 			page 9


 219:Generated_Source\PSoC4/cyPm.c **** 
 220:Generated_Source\PSoC4/cyPm.c **** 
 221:Generated_Source\PSoC4/cyPm.c ****     /*******************************************************************************
 222:Generated_Source\PSoC4/cyPm.c ****     * Function Name: CySysPmStop
 223:Generated_Source\PSoC4/cyPm.c ****     ****************************************************************************//**
 224:Generated_Source\PSoC4/cyPm.c ****     *
 225:Generated_Source\PSoC4/cyPm.c ****     * Puts the part into the Stop state. All internal supplies are off;
 226:Generated_Source\PSoC4/cyPm.c ****     * no state is retained.
 227:Generated_Source\PSoC4/cyPm.c ****     *
 228:Generated_Source\PSoC4/cyPm.c ****     * Wakeup from Stop is performed by toggling the wakeup pin, causing
 229:Generated_Source\PSoC4/cyPm.c ****     * a normal boot procedure to occur. To configure the wakeup pin,
 230:Generated_Source\PSoC4/cyPm.c ****     * the Digital Input Pin component should be placed on the schematic,
 231:Generated_Source\PSoC4/cyPm.c ****     * assigned to the wakeup pin, and resistively pulled up or down to the inverse
 232:Generated_Source\PSoC4/cyPm.c ****     * state of the wakeup polarity. To distinguish the wakeup from the Stop mode
 233:Generated_Source\PSoC4/cyPm.c ****     * and the general Reset event, \ref CySysPmGetResetReason() function could be
 234:Generated_Source\PSoC4/cyPm.c ****     * used.  The wakeup pin is active low by default. The wakeup pin polarity
 235:Generated_Source\PSoC4/cyPm.c ****     * could be changed with the \ref CySysPmSetWakeupPolarity() function.
 236:Generated_Source\PSoC4/cyPm.c ****     *
 237:Generated_Source\PSoC4/cyPm.c ****     * This function freezes IO cells implicitly. It is not possible to enter
 238:Generated_Source\PSoC4/cyPm.c ****     * the STOP mode before freezing the IO cells. The IO cells remain frozen after
 239:Generated_Source\PSoC4/cyPm.c ****     * awake from the Stop mode until the firmware unfreezes them after booting
 240:Generated_Source\PSoC4/cyPm.c ****     * explicitly with \ref CySysPmUnfreezeIo() function call.
 241:Generated_Source\PSoC4/cyPm.c ****     *
 242:Generated_Source\PSoC4/cyPm.c ****     *******************************************************************************/
 243:Generated_Source\PSoC4/cyPm.c ****     void CySysPmStop(void)
 244:Generated_Source\PSoC4/cyPm.c ****     {
 245:Generated_Source\PSoC4/cyPm.c ****         (void) CyEnterCriticalSection();
 246:Generated_Source\PSoC4/cyPm.c **** 
 247:Generated_Source\PSoC4/cyPm.c ****         /* Update token to indicate Stop mode transition. Preserve only polarity. */
 248:Generated_Source\PSoC4/cyPm.c ****         CY_PM_PWR_STOP_REG = (CY_PM_PWR_STOP_REG & CY_PM_PWR_STOP_POLARITY) | CY_PM_PWR_STOP_TOKEN_
 249:Generated_Source\PSoC4/cyPm.c **** 
 250:Generated_Source\PSoC4/cyPm.c ****         /* Freeze IO-Cells to save IO-Cell state */
 251:Generated_Source\PSoC4/cyPm.c ****         CySysPmFreezeIo();
 252:Generated_Source\PSoC4/cyPm.c **** 
 253:Generated_Source\PSoC4/cyPm.c ****         /* Initiates transition to Stop state */
 254:Generated_Source\PSoC4/cyPm.c ****         CY_PM_PWR_STOP_REG = CY_PM_PWR_STOP_REG | CY_PM_PWR_STOP_STOP;
 255:Generated_Source\PSoC4/cyPm.c **** 
 256:Generated_Source\PSoC4/cyPm.c ****         /* Depending on the clock frequency and internal timing delays,
 257:Generated_Source\PSoC4/cyPm.c ****          * the final AHB transaction may or may not complete. To guard against
 258:Generated_Source\PSoC4/cyPm.c ****          * accidentally executing an unintended instruction, it is recommended
 259:Generated_Source\PSoC4/cyPm.c ****          * to add 2 NOP cycles after the final write to the STOP register.
 260:Generated_Source\PSoC4/cyPm.c ****          */
 261:Generated_Source\PSoC4/cyPm.c ****         CY_NOP;
 262:Generated_Source\PSoC4/cyPm.c ****         CY_NOP;
 263:Generated_Source\PSoC4/cyPm.c **** 
 264:Generated_Source\PSoC4/cyPm.c ****         /* Should never get to this WFI instruction */
 265:Generated_Source\PSoC4/cyPm.c ****         CY_PM_WFI;
 266:Generated_Source\PSoC4/cyPm.c **** 
 267:Generated_Source\PSoC4/cyPm.c ****         /* Wakeup from Stop is performed by toggling of Wakeup pin,
 268:Generated_Source\PSoC4/cyPm.c ****          * causing a normal Boot procedure to occur. No need to exit
 269:Generated_Source\PSoC4/cyPm.c ****          * from the critical section.
 270:Generated_Source\PSoC4/cyPm.c ****          */
 271:Generated_Source\PSoC4/cyPm.c ****     }
 272:Generated_Source\PSoC4/cyPm.c **** 
 273:Generated_Source\PSoC4/cyPm.c **** 
 274:Generated_Source\PSoC4/cyPm.c ****     /*******************************************************************************
 275:Generated_Source\PSoC4/cyPm.c ****     * Function Name: CySysPmSetWakeupPolarity
ARM GAS  C:\Users\Sil\AppData\Local\Temp\cc2CYAaq.s 			page 10


 276:Generated_Source\PSoC4/cyPm.c ****     ****************************************************************************//**
 277:Generated_Source\PSoC4/cyPm.c ****     *
 278:Generated_Source\PSoC4/cyPm.c ****     * Wake up from the stop mode is performed by toggling the wakeup pin,
 279:Generated_Source\PSoC4/cyPm.c ****     * causing a normal boot procedure to occur. This function assigns
 280:Generated_Source\PSoC4/cyPm.c ****     * the wakeup pin active level. Setting the wakeup pin to this level will cause
 281:Generated_Source\PSoC4/cyPm.c ****     * the wakeup from stop mode. The wakeup pin is active low by default.
 282:Generated_Source\PSoC4/cyPm.c ****     *
 283:Generated_Source\PSoC4/cyPm.c ****     * \param polarity
 284:Generated_Source\PSoC4/cyPm.c ****     * - \ref CY_PM_STOP_WAKEUP_ACTIVE_LOW Logical zero will wakeup the chip
 285:Generated_Source\PSoC4/cyPm.c ****     * - \ref CY_PM_STOP_WAKEUP_ACTIVE_HIGH Logical one will wakeup the chip
 286:Generated_Source\PSoC4/cyPm.c ****     *
 287:Generated_Source\PSoC4/cyPm.c ****     *******************************************************************************/
 288:Generated_Source\PSoC4/cyPm.c ****     void CySysPmSetWakeupPolarity(uint32 polarity)
 289:Generated_Source\PSoC4/cyPm.c ****     {
 239              		.loc 1 289 0
 240              		.cfi_startproc
 241              		@ args = 0, pretend = 0, frame = 0
 242              		@ frame_needed = 0, uses_anonymous_args = 0
 243              	.LVL9:
 244 0000 10B5     		push	{r4, lr}
 245              		.cfi_def_cfa_offset 8
 246              		.cfi_offset 4, -8
 247              		.cfi_offset 14, -4
 248 0002 0400     		movs	r4, r0
 290:Generated_Source\PSoC4/cyPm.c ****         uint8 interruptState;
 291:Generated_Source\PSoC4/cyPm.c **** 
 292:Generated_Source\PSoC4/cyPm.c ****         interruptState = CyEnterCriticalSection();
 249              		.loc 1 292 0
 250 0004 FFF7FEFF 		bl	CyEnterCriticalSection
 251              	.LVL10:
 293:Generated_Source\PSoC4/cyPm.c **** 
 294:Generated_Source\PSoC4/cyPm.c ****         CY_PM_PWR_STOP_REG = (CY_PM_STOP_WAKEUP_ACTIVE_LOW != polarity) ?
 295:Generated_Source\PSoC4/cyPm.c ****                             (CY_PM_PWR_STOP_REG | CY_PM_PWR_STOP_POLARITY) :
 252              		.loc 1 295 0
 253 0008 002C     		cmp	r4, #0
 254 000a 05D0     		beq	.L11
 255              		.loc 1 295 0 is_stmt 0 discriminator 1
 256 000c 074B     		ldr	r3, .L13
 257 000e 1B68     		ldr	r3, [r3]
 258 0010 8022     		movs	r2, #128
 259 0012 5202     		lsls	r2, r2, #9
 260 0014 1343     		orrs	r3, r2
 261 0016 03E0     		b	.L12
 262              	.L11:
 296:Generated_Source\PSoC4/cyPm.c ****                             (CY_PM_PWR_STOP_REG & (uint32) (~CY_PM_PWR_STOP_POLARITY));
 263              		.loc 1 296 0 is_stmt 1 discriminator 2
 264 0018 044B     		ldr	r3, .L13
 265 001a 1A68     		ldr	r2, [r3]
 295:Generated_Source\PSoC4/cyPm.c ****                             (CY_PM_PWR_STOP_REG & (uint32) (~CY_PM_PWR_STOP_POLARITY));
 266              		.loc 1 295 0 discriminator 2
 267 001c 044B     		ldr	r3, .L13+4
 268 001e 1340     		ands	r3, r2
 269              	.L12:
 294:Generated_Source\PSoC4/cyPm.c ****                             (CY_PM_PWR_STOP_REG | CY_PM_PWR_STOP_POLARITY) :
 270              		.loc 1 294 0
 271 0020 024A     		ldr	r2, .L13
 272 0022 1360     		str	r3, [r2]
ARM GAS  C:\Users\Sil\AppData\Local\Temp\cc2CYAaq.s 			page 11


 297:Generated_Source\PSoC4/cyPm.c **** 
 298:Generated_Source\PSoC4/cyPm.c ****         CyExitCriticalSection(interruptState);
 273              		.loc 1 298 0
 274 0024 FFF7FEFF 		bl	CyExitCriticalSection
 275              	.LVL11:
 299:Generated_Source\PSoC4/cyPm.c ****     }
 276              		.loc 1 299 0
 277              		@ sp needed
 278              	.LVL12:
 279 0028 10BD     		pop	{r4, pc}
 280              	.L14:
 281 002a C046     		.align	2
 282              	.L13:
 283 002c 2C000B40 		.word	1074462764
 284 0030 FFFFFEFF 		.word	-65537
 285              		.cfi_endproc
 286              	.LFE4:
 287              		.size	CySysPmSetWakeupPolarity, .-CySysPmSetWakeupPolarity
 288              		.section	.text.CySysPmGetResetReason,"ax",%progbits
 289              		.align	2
 290              		.global	CySysPmGetResetReason
 291              		.code	16
 292              		.thumb_func
 293              		.type	CySysPmGetResetReason, %function
 294              	CySysPmGetResetReason:
 295              	.LFB5:
 300:Generated_Source\PSoC4/cyPm.c **** 
 301:Generated_Source\PSoC4/cyPm.c **** 
 302:Generated_Source\PSoC4/cyPm.c ****     /*******************************************************************************
 303:Generated_Source\PSoC4/cyPm.c ****     * Function Name: CySysPmGetResetReason
 304:Generated_Source\PSoC4/cyPm.c ****     ****************************************************************************//**
 305:Generated_Source\PSoC4/cyPm.c ****     *
 306:Generated_Source\PSoC4/cyPm.c ****     * Retrieves the last reset reason - transition from OFF/XRES/STOP/HIBERNATE to
 307:Generated_Source\PSoC4/cyPm.c ****     * the RESET state. Note that waking up from STOP using XRES will be perceived
 308:Generated_Source\PSoC4/cyPm.c ****     * as a general RESET.
 309:Generated_Source\PSoC4/cyPm.c ****     *
 310:Generated_Source\PSoC4/cyPm.c ****     * \return CY_PM_RESET_REASON_UNKN          Unknown reset reason.
 311:Generated_Source\PSoC4/cyPm.c ****     * \return CY_PM_RESET_REASON_XRES          Transition from OFF/XRES to RESET
 312:Generated_Source\PSoC4/cyPm.c ****     * \return CY_PM_RESET_REASON_WAKEUP_HIB    Transition/wakeup from HIBERNATE to RESET
 313:Generated_Source\PSoC4/cyPm.c ****     * \return CY_PM_RESET_REASON_WAKEUP_STOP   Transition/wakeup from STOP to RESET
 314:Generated_Source\PSoC4/cyPm.c ****     *
 315:Generated_Source\PSoC4/cyPm.c ****     *******************************************************************************/
 316:Generated_Source\PSoC4/cyPm.c ****     uint32 CySysPmGetResetReason(void)
 317:Generated_Source\PSoC4/cyPm.c ****     {
 296              		.loc 1 317 0
 297              		.cfi_startproc
 298              		@ args = 0, pretend = 0, frame = 0
 299              		@ frame_needed = 0, uses_anonymous_args = 0
 300              		@ link register save eliminated.
 301              	.LVL13:
 318:Generated_Source\PSoC4/cyPm.c ****         uint32 reason = CY_PM_RESET_REASON_UNKN;
 319:Generated_Source\PSoC4/cyPm.c **** 
 320:Generated_Source\PSoC4/cyPm.c ****         switch(CY_PM_PWR_STOP_REG & CY_PM_PWR_STOP_TOKEN_MASK)
 302              		.loc 1 320 0
 303 0000 084B     		ldr	r3, .L21
 304 0002 1B68     		ldr	r3, [r3]
 305 0004 FF22     		movs	r2, #255
ARM GAS  C:\Users\Sil\AppData\Local\Temp\cc2CYAaq.s 			page 12


 306 0006 1340     		ands	r3, r2
 307 0008 F12B     		cmp	r3, #241
 308 000a 05D0     		beq	.L17
 309 000c F22B     		cmp	r3, #242
 310 000e 05D0     		beq	.L18
 311 0010 002B     		cmp	r3, #0
 312 0012 05D0     		beq	.L20
 318:Generated_Source\PSoC4/cyPm.c ****         uint32 reason = CY_PM_RESET_REASON_UNKN;
 313              		.loc 1 318 0
 314 0014 0020     		movs	r0, #0
 315 0016 04E0     		b	.L19
 316              	.L17:
 317              	.LVL14:
 321:Generated_Source\PSoC4/cyPm.c ****         {
 322:Generated_Source\PSoC4/cyPm.c ****         /* Power up, XRES */
 323:Generated_Source\PSoC4/cyPm.c ****         case CY_PM_PWR_STOP_TOKEN_XRES:
 324:Generated_Source\PSoC4/cyPm.c ****             reason = CY_PM_RESET_REASON_XRES;
 325:Generated_Source\PSoC4/cyPm.c ****             break;
 326:Generated_Source\PSoC4/cyPm.c **** 
 327:Generated_Source\PSoC4/cyPm.c ****         /* Wakeup from Hibernate */
 328:Generated_Source\PSoC4/cyPm.c ****         case CY_PM_PWR_STOP_TOKEN_HIB:
 329:Generated_Source\PSoC4/cyPm.c ****             reason = CY_PM_RESET_REASON_WAKEUP_HIB;
 318              		.loc 1 329 0
 319 0018 0220     		movs	r0, #2
 330:Generated_Source\PSoC4/cyPm.c ****             break;
 320              		.loc 1 330 0
 321 001a 02E0     		b	.L19
 322              	.LVL15:
 323              	.L18:
 331:Generated_Source\PSoC4/cyPm.c **** 
 332:Generated_Source\PSoC4/cyPm.c ****         /* Wakeup from Stop (through WAKEUP pin assert) */
 333:Generated_Source\PSoC4/cyPm.c ****         case CY_PM_PWR_STOP_TOKEN_STOP:
 334:Generated_Source\PSoC4/cyPm.c ****             reason = CY_PM_RESET_REASON_WAKEUP_STOP;
 324              		.loc 1 334 0
 325 001c 0320     		movs	r0, #3
 335:Generated_Source\PSoC4/cyPm.c ****             break;
 326              		.loc 1 335 0
 327 001e 00E0     		b	.L19
 328              	.LVL16:
 329              	.L20:
 324:Generated_Source\PSoC4/cyPm.c ****             break;
 330              		.loc 1 324 0
 331 0020 0120     		movs	r0, #1
 332              	.LVL17:
 333              	.L19:
 336:Generated_Source\PSoC4/cyPm.c **** 
 337:Generated_Source\PSoC4/cyPm.c ****         /* Unknown reason */
 338:Generated_Source\PSoC4/cyPm.c ****         default:
 339:Generated_Source\PSoC4/cyPm.c ****             break;
 340:Generated_Source\PSoC4/cyPm.c ****         }
 341:Generated_Source\PSoC4/cyPm.c **** 
 342:Generated_Source\PSoC4/cyPm.c ****         return (reason);
 343:Generated_Source\PSoC4/cyPm.c ****     }
 334              		.loc 1 343 0
 335              		@ sp needed
 336 0022 7047     		bx	lr
 337              	.L22:
ARM GAS  C:\Users\Sil\AppData\Local\Temp\cc2CYAaq.s 			page 13


 338              		.align	2
 339              	.L21:
 340 0024 2C000B40 		.word	1074462764
 341              		.cfi_endproc
 342              	.LFE5:
 343              		.size	CySysPmGetResetReason, .-CySysPmGetResetReason
 344              		.section	.text.CySysPmFreezeIo,"ax",%progbits
 345              		.align	2
 346              		.global	CySysPmFreezeIo
 347              		.code	16
 348              		.thumb_func
 349              		.type	CySysPmFreezeIo, %function
 350              	CySysPmFreezeIo:
 351              	.LFB6:
 344:Generated_Source\PSoC4/cyPm.c **** 
 345:Generated_Source\PSoC4/cyPm.c **** 
 346:Generated_Source\PSoC4/cyPm.c ****     /*******************************************************************************
 347:Generated_Source\PSoC4/cyPm.c ****     * Function Name: CySysPmFreezeIo
 348:Generated_Source\PSoC4/cyPm.c ****     ****************************************************************************//**
 349:Generated_Source\PSoC4/cyPm.c ****     *
 350:Generated_Source\PSoC4/cyPm.c ****     * Freezes IO-Cells directly to save the IO-Cell state on wake up from the
 351:Generated_Source\PSoC4/cyPm.c ****     * Hibernate or Stop state. It is not required to call this function before
 352:Generated_Source\PSoC4/cyPm.c ****     * entering the Stop mode, since \ref CySysPmStop() function freezes IO-Cells
 353:Generated_Source\PSoC4/cyPm.c ****     * implicitly.
 354:Generated_Source\PSoC4/cyPm.c ****     *
 355:Generated_Source\PSoC4/cyPm.c ****     * This API is not available for PSoC 4000 family of devices.
 356:Generated_Source\PSoC4/cyPm.c ****     *
 357:Generated_Source\PSoC4/cyPm.c ****     *******************************************************************************/
 358:Generated_Source\PSoC4/cyPm.c ****     void CySysPmFreezeIo(void)
 359:Generated_Source\PSoC4/cyPm.c ****     {
 352              		.loc 1 359 0
 353              		.cfi_startproc
 354              		@ args = 0, pretend = 0, frame = 0
 355              		@ frame_needed = 0, uses_anonymous_args = 0
 356 0000 10B5     		push	{r4, lr}
 357              		.cfi_def_cfa_offset 8
 358              		.cfi_offset 4, -8
 359              		.cfi_offset 14, -4
 360:Generated_Source\PSoC4/cyPm.c ****         uint8 interruptState;
 361:Generated_Source\PSoC4/cyPm.c **** 
 362:Generated_Source\PSoC4/cyPm.c ****         interruptState = CyEnterCriticalSection();
 360              		.loc 1 362 0
 361 0002 FFF7FEFF 		bl	CyEnterCriticalSection
 362              	.LVL18:
 363:Generated_Source\PSoC4/cyPm.c **** 
 364:Generated_Source\PSoC4/cyPm.c ****         /* Check FREEZE state to avoid recurrent IO-Cells freeze attempt,
 365:Generated_Source\PSoC4/cyPm.c ****          * since the second call to this function will cause accidental switch
 366:Generated_Source\PSoC4/cyPm.c ****          * to the STOP mode (the system will enter STOP mode immediately after
 367:Generated_Source\PSoC4/cyPm.c ****          * writing to STOP bit since both UNLOCK and FREEZE have been set correctly
 368:Generated_Source\PSoC4/cyPm.c ****          * in a previous call to this function).
 369:Generated_Source\PSoC4/cyPm.c ****          */
 370:Generated_Source\PSoC4/cyPm.c ****         if (0u == (CY_PM_PWR_STOP_REG & CY_PM_PWR_STOP_FREEZE))
 363              		.loc 1 370 0
 364 0006 094B     		ldr	r3, .L25
 365 0008 1B68     		ldr	r3, [r3]
 366 000a 9B03     		lsls	r3, r3, #14
 367 000c 0AD4     		bmi	.L24
ARM GAS  C:\Users\Sil\AppData\Local\Temp\cc2CYAaq.s 			page 14


 371:Generated_Source\PSoC4/cyPm.c ****         {
 372:Generated_Source\PSoC4/cyPm.c ****             /* Preserve last reset reason and disable overrides the next freeze command by peripher
 373:Generated_Source\PSoC4/cyPm.c ****             CY_PM_PWR_STOP_REG = CY_PM_PWR_STOP_STOP | CY_PM_PWR_STOP_FREEZE | CY_PM_PWR_STOP_UNLOC
 374:Generated_Source\PSoC4/cyPm.c ****                                 (CY_PM_PWR_STOP_REG & (CY_PM_PWR_STOP_TOKEN_MASK | CY_PM_PWR_STOP_P
 368              		.loc 1 374 0
 369 000e 074B     		ldr	r3, .L25
 370 0010 1968     		ldr	r1, [r3]
 371 0012 074A     		ldr	r2, .L25+4
 372 0014 0A40     		ands	r2, r1
 373:Generated_Source\PSoC4/cyPm.c ****                                 (CY_PM_PWR_STOP_REG & (CY_PM_PWR_STOP_TOKEN_MASK | CY_PM_PWR_STOP_P
 373              		.loc 1 373 0
 374 0016 0749     		ldr	r1, .L25+8
 375 0018 0A43     		orrs	r2, r1
 376 001a 1A60     		str	r2, [r3]
 375:Generated_Source\PSoC4/cyPm.c **** 
 376:Generated_Source\PSoC4/cyPm.c ****             /* If reading after writing, read this register three times to delay
 377:Generated_Source\PSoC4/cyPm.c ****             *  enough time for internal settling.
 378:Generated_Source\PSoC4/cyPm.c ****             */
 379:Generated_Source\PSoC4/cyPm.c ****             (void) CY_PM_PWR_STOP_REG;
 377              		.loc 1 379 0
 378 001c 1A68     		ldr	r2, [r3]
 380:Generated_Source\PSoC4/cyPm.c ****             (void) CY_PM_PWR_STOP_REG;
 379              		.loc 1 380 0
 380 001e 1A68     		ldr	r2, [r3]
 381:Generated_Source\PSoC4/cyPm.c **** 
 382:Generated_Source\PSoC4/cyPm.c ****             /* Second write causes the freeze of IO-Cells to save IO-Cell state */
 383:Generated_Source\PSoC4/cyPm.c ****             CY_PM_PWR_STOP_REG = CY_PM_PWR_STOP_REG;
 381              		.loc 1 383 0
 382 0020 1A68     		ldr	r2, [r3]
 383 0022 1A60     		str	r2, [r3]
 384              	.L24:
 384:Generated_Source\PSoC4/cyPm.c ****         }
 385:Generated_Source\PSoC4/cyPm.c **** 
 386:Generated_Source\PSoC4/cyPm.c ****         CyExitCriticalSection(interruptState);
 385              		.loc 1 386 0
 386 0024 FFF7FEFF 		bl	CyExitCriticalSection
 387              	.LVL19:
 387:Generated_Source\PSoC4/cyPm.c ****     }
 388              		.loc 1 387 0
 389              		@ sp needed
 390 0028 10BD     		pop	{r4, pc}
 391              	.L26:
 392 002a C046     		.align	2
 393              	.L25:
 394 002c 2C000B40 		.word	1074462764
 395 0030 FF000100 		.word	65791
 396 0034 003A0280 		.word	-2147337728
 397              		.cfi_endproc
 398              	.LFE6:
 399              		.size	CySysPmFreezeIo, .-CySysPmFreezeIo
 400              		.section	.text.CySysPmStop,"ax",%progbits
 401              		.align	2
 402              		.global	CySysPmStop
 403              		.code	16
 404              		.thumb_func
 405              		.type	CySysPmStop, %function
 406              	CySysPmStop:
ARM GAS  C:\Users\Sil\AppData\Local\Temp\cc2CYAaq.s 			page 15


 407              	.LFB3:
 244:Generated_Source\PSoC4/cyPm.c ****         (void) CyEnterCriticalSection();
 408              		.loc 1 244 0
 409              		.cfi_startproc
 410              		@ args = 0, pretend = 0, frame = 0
 411              		@ frame_needed = 0, uses_anonymous_args = 0
 412 0000 10B5     		push	{r4, lr}
 413              		.cfi_def_cfa_offset 8
 414              		.cfi_offset 4, -8
 415              		.cfi_offset 14, -4
 245:Generated_Source\PSoC4/cyPm.c **** 
 416              		.loc 1 245 0
 417 0002 FFF7FEFF 		bl	CyEnterCriticalSection
 418              	.LVL20:
 248:Generated_Source\PSoC4/cyPm.c **** 
 419              		.loc 1 248 0
 420 0006 094C     		ldr	r4, .L28
 421 0008 2268     		ldr	r2, [r4]
 422 000a 8023     		movs	r3, #128
 423 000c 5B02     		lsls	r3, r3, #9
 424 000e 1340     		ands	r3, r2
 425 0010 F222     		movs	r2, #242
 426 0012 1343     		orrs	r3, r2
 427 0014 2360     		str	r3, [r4]
 251:Generated_Source\PSoC4/cyPm.c **** 
 428              		.loc 1 251 0
 429 0016 FFF7FEFF 		bl	CySysPmFreezeIo
 430              	.LVL21:
 254:Generated_Source\PSoC4/cyPm.c **** 
 431              		.loc 1 254 0
 432 001a 2368     		ldr	r3, [r4]
 433 001c 8022     		movs	r2, #128
 434 001e 1206     		lsls	r2, r2, #24
 435 0020 1343     		orrs	r3, r2
 436 0022 2360     		str	r3, [r4]
 261:Generated_Source\PSoC4/cyPm.c ****         CY_NOP;
 437              		.loc 1 261 0
 438              		.syntax divided
 439              	@ 261 "Generated_Source\PSoC4\cyPm.c" 1
 440 0024 C046     		NOP
 441              	
 442              	@ 0 "" 2
 262:Generated_Source\PSoC4/cyPm.c **** 
 443              		.loc 1 262 0
 444              	@ 262 "Generated_Source\PSoC4\cyPm.c" 1
 445 0026 C046     		NOP
 446              	
 447              	@ 0 "" 2
 265:Generated_Source\PSoC4/cyPm.c **** 
 448              		.loc 1 265 0
 449              	@ 265 "Generated_Source\PSoC4\cyPm.c" 1
 450 0028 30BF     		WFI 
 451              	
 452              	@ 0 "" 2
 271:Generated_Source\PSoC4/cyPm.c **** 
 453              		.loc 1 271 0
 454              		.thumb
ARM GAS  C:\Users\Sil\AppData\Local\Temp\cc2CYAaq.s 			page 16


 455              		.syntax unified
 456              		@ sp needed
 457 002a 10BD     		pop	{r4, pc}
 458              	.L29:
 459              		.align	2
 460              	.L28:
 461 002c 2C000B40 		.word	1074462764
 462              		.cfi_endproc
 463              	.LFE3:
 464              		.size	CySysPmStop, .-CySysPmStop
 465              		.section	.text.CySysPmUnfreezeIo,"ax",%progbits
 466              		.align	2
 467              		.global	CySysPmUnfreezeIo
 468              		.code	16
 469              		.thumb_func
 470              		.type	CySysPmUnfreezeIo, %function
 471              	CySysPmUnfreezeIo:
 472              	.LFB7:
 388:Generated_Source\PSoC4/cyPm.c **** 
 389:Generated_Source\PSoC4/cyPm.c **** 
 390:Generated_Source\PSoC4/cyPm.c ****     /*******************************************************************************
 391:Generated_Source\PSoC4/cyPm.c ****     * Function Name: CySysPmUnfreezeIo
 392:Generated_Source\PSoC4/cyPm.c ****     ****************************************************************************//**
 393:Generated_Source\PSoC4/cyPm.c ****     *
 394:Generated_Source\PSoC4/cyPm.c ****     * The IO-Cells remain frozen after awake from Hibernate or Stop mode until
 395:Generated_Source\PSoC4/cyPm.c ****     * the firmware unfreezes them after booting. The call of this function
 396:Generated_Source\PSoC4/cyPm.c ****     * unfreezes IO-Cells explicitly.
 397:Generated_Source\PSoC4/cyPm.c ****     *
 398:Generated_Source\PSoC4/cyPm.c ****     * If the firmware intent is to retain the data value on the port, then the
 399:Generated_Source\PSoC4/cyPm.c ****     * value must be read and re-written to the data register before calling this
 400:Generated_Source\PSoC4/cyPm.c ****     * API. Furthermore, the drive mode must be re-programmed.  If this is not done,
 401:Generated_Source\PSoC4/cyPm.c ****     * the pin state will change to default state the moment the freeze is removed.
 402:Generated_Source\PSoC4/cyPm.c ****     *
 403:Generated_Source\PSoC4/cyPm.c ****     * This API is not available for PSoC 4000 family of devices.
 404:Generated_Source\PSoC4/cyPm.c ****     *
 405:Generated_Source\PSoC4/cyPm.c ****     *******************************************************************************/
 406:Generated_Source\PSoC4/cyPm.c ****     void CySysPmUnfreezeIo(void)
 407:Generated_Source\PSoC4/cyPm.c ****     {
 473              		.loc 1 407 0
 474              		.cfi_startproc
 475              		@ args = 0, pretend = 0, frame = 0
 476              		@ frame_needed = 0, uses_anonymous_args = 0
 477 0000 10B5     		push	{r4, lr}
 478              		.cfi_def_cfa_offset 8
 479              		.cfi_offset 4, -8
 480              		.cfi_offset 14, -4
 408:Generated_Source\PSoC4/cyPm.c ****         uint8 interruptState;
 409:Generated_Source\PSoC4/cyPm.c **** 
 410:Generated_Source\PSoC4/cyPm.c ****         interruptState = CyEnterCriticalSection();
 481              		.loc 1 410 0
 482 0002 FFF7FEFF 		bl	CyEnterCriticalSection
 483              	.LVL22:
 411:Generated_Source\PSoC4/cyPm.c **** 
 412:Generated_Source\PSoC4/cyPm.c ****         /* Preserve last reset reason and wakeup polarity. Then, unfreeze I/O:
 413:Generated_Source\PSoC4/cyPm.c ****          * write PWR_STOP.FREEZE=0, .UNLOCK=0x3A, .STOP=0, .TOKEN
 414:Generated_Source\PSoC4/cyPm.c ****          */
 415:Generated_Source\PSoC4/cyPm.c ****         CY_PM_PWR_STOP_REG = CY_PM_PWR_STOP_UNLOCK |
ARM GAS  C:\Users\Sil\AppData\Local\Temp\cc2CYAaq.s 			page 17


 416:Generated_Source\PSoC4/cyPm.c ****                             (CY_PM_PWR_STOP_REG & (CY_PM_PWR_STOP_TOKEN_MASK | CY_PM_PWR_STOP_POLAR
 484              		.loc 1 416 0
 485 0006 084B     		ldr	r3, .L31
 486 0008 1A68     		ldr	r2, [r3]
 487 000a 0849     		ldr	r1, .L31+4
 488 000c 0A40     		ands	r2, r1
 415:Generated_Source\PSoC4/cyPm.c ****                             (CY_PM_PWR_STOP_REG & (CY_PM_PWR_STOP_TOKEN_MASK | CY_PM_PWR_STOP_POLAR
 489              		.loc 1 415 0
 490 000e E824     		movs	r4, #232
 491 0010 A401     		lsls	r4, r4, #6
 492 0012 2243     		orrs	r2, r4
 493 0014 1A60     		str	r2, [r3]
 417:Generated_Source\PSoC4/cyPm.c **** 
 418:Generated_Source\PSoC4/cyPm.c ****         /* If reading after writing, read this register three times to delay
 419:Generated_Source\PSoC4/cyPm.c ****         *  enough time for internal settling.
 420:Generated_Source\PSoC4/cyPm.c ****         */
 421:Generated_Source\PSoC4/cyPm.c ****         (void) CY_PM_PWR_STOP_REG;
 494              		.loc 1 421 0
 495 0016 1A68     		ldr	r2, [r3]
 422:Generated_Source\PSoC4/cyPm.c ****         (void) CY_PM_PWR_STOP_REG;
 496              		.loc 1 422 0
 497 0018 1A68     		ldr	r2, [r3]
 423:Generated_Source\PSoC4/cyPm.c **** 
 424:Generated_Source\PSoC4/cyPm.c ****         /* Lock STOP mode: write PWR_STOP.FREEZE=0, UNLOCK=0x00, STOP=0, .TOKEN */
 425:Generated_Source\PSoC4/cyPm.c ****         CY_PM_PWR_STOP_REG &= (CY_PM_PWR_STOP_TOKEN_MASK | CY_PM_PWR_STOP_POLARITY);
 498              		.loc 1 425 0
 499 001a 1A68     		ldr	r2, [r3]
 500 001c 1140     		ands	r1, r2
 501 001e 1960     		str	r1, [r3]
 426:Generated_Source\PSoC4/cyPm.c **** 
 427:Generated_Source\PSoC4/cyPm.c ****         CyExitCriticalSection(interruptState);
 502              		.loc 1 427 0
 503 0020 FFF7FEFF 		bl	CyExitCriticalSection
 504              	.LVL23:
 428:Generated_Source\PSoC4/cyPm.c ****     }
 505              		.loc 1 428 0
 506              		@ sp needed
 507 0024 10BD     		pop	{r4, pc}
 508              	.L32:
 509 0026 C046     		.align	2
 510              	.L31:
 511 0028 2C000B40 		.word	1074462764
 512 002c FF000100 		.word	65791
 513              		.cfi_endproc
 514              	.LFE7:
 515              		.size	CySysPmUnfreezeIo, .-CySysPmUnfreezeIo
 516              		.text
 517              	.Letext0:
 518              		.file 2 "Generated_Source\\PSoC4\\cytypes.h"
 519              		.file 3 "Generated_Source\\PSoC4\\CyLib.h"
 520              		.section	.debug_info,"",%progbits
 521              	.Ldebug_info0:
 522 0000 CE020000 		.4byte	0x2ce
 523 0004 0400     		.2byte	0x4
 524 0006 00000000 		.4byte	.Ldebug_abbrev0
 525 000a 04       		.byte	0x4
 526 000b 01       		.uleb128 0x1
ARM GAS  C:\Users\Sil\AppData\Local\Temp\cc2CYAaq.s 			page 18


 527 000c 52010000 		.4byte	.LASF32
 528 0010 0C       		.byte	0xc
 529 0011 68020000 		.4byte	.LASF33
 530 0015 E9010000 		.4byte	.LASF34
 531 0019 00000000 		.4byte	.Ldebug_ranges0+0
 532 001d 00000000 		.4byte	0
 533 0021 00000000 		.4byte	.Ldebug_line0
 534 0025 02       		.uleb128 0x2
 535 0026 01       		.byte	0x1
 536 0027 06       		.byte	0x6
 537 0028 92020000 		.4byte	.LASF0
 538 002c 02       		.uleb128 0x2
 539 002d 01       		.byte	0x1
 540 002e 08       		.byte	0x8
 541 002f 73000000 		.4byte	.LASF1
 542 0033 02       		.uleb128 0x2
 543 0034 02       		.byte	0x2
 544 0035 05       		.byte	0x5
 545 0036 44020000 		.4byte	.LASF2
 546 003a 02       		.uleb128 0x2
 547 003b 02       		.byte	0x2
 548 003c 07       		.byte	0x7
 549 003d 32000000 		.4byte	.LASF3
 550 0041 02       		.uleb128 0x2
 551 0042 04       		.byte	0x4
 552 0043 05       		.byte	0x5
 553 0044 5F020000 		.4byte	.LASF4
 554 0048 02       		.uleb128 0x2
 555 0049 04       		.byte	0x4
 556 004a 07       		.byte	0x7
 557 004b 90000000 		.4byte	.LASF5
 558 004f 02       		.uleb128 0x2
 559 0050 08       		.byte	0x8
 560 0051 05       		.byte	0x5
 561 0052 24020000 		.4byte	.LASF6
 562 0056 02       		.uleb128 0x2
 563 0057 08       		.byte	0x8
 564 0058 07       		.byte	0x7
 565 0059 5C000000 		.4byte	.LASF7
 566 005d 03       		.uleb128 0x3
 567 005e 04       		.byte	0x4
 568 005f 05       		.byte	0x5
 569 0060 696E7400 		.ascii	"int\000"
 570 0064 02       		.uleb128 0x2
 571 0065 04       		.byte	0x4
 572 0066 07       		.byte	0x7
 573 0067 F2000000 		.4byte	.LASF8
 574 006b 04       		.uleb128 0x4
 575 006c A2000000 		.4byte	.LASF9
 576 0070 02       		.byte	0x2
 577 0071 E401     		.2byte	0x1e4
 578 0073 2C000000 		.4byte	0x2c
 579 0077 04       		.uleb128 0x4
 580 0078 CD000000 		.4byte	.LASF10
 581 007c 02       		.byte	0x2
 582 007d E501     		.2byte	0x1e5
 583 007f 3A000000 		.4byte	0x3a
ARM GAS  C:\Users\Sil\AppData\Local\Temp\cc2CYAaq.s 			page 19


 584 0083 04       		.uleb128 0x4
 585 0084 D4000000 		.4byte	.LASF11
 586 0088 02       		.byte	0x2
 587 0089 E601     		.2byte	0x1e6
 588 008b 48000000 		.4byte	0x48
 589 008f 02       		.uleb128 0x2
 590 0090 04       		.byte	0x4
 591 0091 04       		.byte	0x4
 592 0092 56000000 		.4byte	.LASF12
 593 0096 02       		.uleb128 0x2
 594 0097 08       		.byte	0x8
 595 0098 04       		.byte	0x4
 596 0099 B4000000 		.4byte	.LASF13
 597 009d 02       		.uleb128 0x2
 598 009e 01       		.byte	0x1
 599 009f 08       		.byte	0x8
 600 00a0 32020000 		.4byte	.LASF14
 601 00a4 04       		.uleb128 0x4
 602 00a5 00000000 		.4byte	.LASF15
 603 00a9 02       		.byte	0x2
 604 00aa 8F02     		.2byte	0x28f
 605 00ac B0000000 		.4byte	0xb0
 606 00b0 05       		.uleb128 0x5
 607 00b1 77000000 		.4byte	0x77
 608 00b5 04       		.uleb128 0x4
 609 00b6 06000000 		.4byte	.LASF16
 610 00ba 02       		.byte	0x2
 611 00bb 9002     		.2byte	0x290
 612 00bd C1000000 		.4byte	0xc1
 613 00c1 05       		.uleb128 0x5
 614 00c2 83000000 		.4byte	0x83
 615 00c6 02       		.uleb128 0x2
 616 00c7 08       		.byte	0x8
 617 00c8 04       		.byte	0x4
 618 00c9 86020000 		.4byte	.LASF17
 619 00cd 02       		.uleb128 0x2
 620 00ce 04       		.byte	0x4
 621 00cf 07       		.byte	0x7
 622 00d0 E0010000 		.4byte	.LASF18
 623 00d4 06       		.uleb128 0x6
 624 00d5 25000000 		.4byte	.LASF19
 625 00d9 01       		.byte	0x1
 626 00da 21       		.byte	0x21
 627 00db 00000000 		.4byte	.LFB0
 628 00df 1C000000 		.4byte	.LFE0-.LFB0
 629 00e3 01       		.uleb128 0x1
 630 00e4 9C       		.byte	0x9c
 631 00e5 0B010000 		.4byte	0x10b
 632 00e9 07       		.uleb128 0x7
 633 00ea 81000000 		.4byte	.LASF21
 634 00ee 01       		.byte	0x1
 635 00ef 23       		.byte	0x23
 636 00f0 6B000000 		.4byte	0x6b
 637 00f4 00000000 		.4byte	.LLST0
 638 00f8 08       		.uleb128 0x8
 639 00f9 06000000 		.4byte	.LVL0
 640 00fd B0020000 		.4byte	0x2b0
ARM GAS  C:\Users\Sil\AppData\Local\Temp\cc2CYAaq.s 			page 20


 641 0101 08       		.uleb128 0x8
 642 0102 16000000 		.4byte	.LVL1
 643 0106 BB020000 		.4byte	0x2bb
 644 010a 00       		.byte	0
 645 010b 06       		.uleb128 0x6
 646 010c 4E020000 		.4byte	.LASF20
 647 0110 01       		.byte	0x1
 648 0111 40       		.byte	0x40
 649 0112 00000000 		.4byte	.LFB1
 650 0116 6C000000 		.4byte	.LFE1-.LFB1
 651 011a 01       		.uleb128 0x1
 652 011b 9C       		.byte	0x9c
 653 011c 6B010000 		.4byte	0x16b
 654 0120 07       		.uleb128 0x7
 655 0121 81000000 		.4byte	.LASF21
 656 0125 01       		.byte	0x1
 657 0126 42       		.byte	0x42
 658 0127 6B000000 		.4byte	0x6b
 659 012b 13000000 		.4byte	.LLST1
 660 012f 09       		.uleb128 0x9
 661 0130 37020000 		.4byte	.LASF22
 662 0134 01       		.byte	0x1
 663 0135 44       		.byte	0x44
 664 0136 C1000000 		.4byte	0xc1
 665 013a 02       		.uleb128 0x2
 666 013b 91       		.byte	0x91
 667 013c 64       		.sleb128 -28
 668 013d 08       		.uleb128 0x8
 669 013e 08000000 		.4byte	.LVL2
 670 0142 B0020000 		.4byte	0x2b0
 671 0146 0A       		.uleb128 0xa
 672 0147 40000000 		.4byte	.LVL4
 673 014b C6020000 		.4byte	0x2c6
 674 014f 5A010000 		.4byte	0x15a
 675 0153 0B       		.uleb128 0xb
 676 0154 01       		.uleb128 0x1
 677 0155 50       		.byte	0x50
 678 0156 02       		.uleb128 0x2
 679 0157 76       		.byte	0x76
 680 0158 00       		.sleb128 0
 681 0159 00       		.byte	0
 682 015a 0C       		.uleb128 0xc
 683 015b 52000000 		.4byte	.LVL5
 684 015f BB020000 		.4byte	0x2bb
 685 0163 0B       		.uleb128 0xb
 686 0164 01       		.uleb128 0x1
 687 0165 50       		.byte	0x50
 688 0166 02       		.uleb128 0x2
 689 0167 74       		.byte	0x74
 690 0168 00       		.sleb128 0
 691 0169 00       		.byte	0
 692 016a 00       		.byte	0
 693 016b 06       		.uleb128 0x6
 694 016c 45000000 		.4byte	.LASF23
 695 0170 01       		.byte	0x1
 696 0171 B8       		.byte	0xb8
 697 0172 00000000 		.4byte	.LFB2
ARM GAS  C:\Users\Sil\AppData\Local\Temp\cc2CYAaq.s 			page 21


 698 0176 50000000 		.4byte	.LFE2-.LFB2
 699 017a 01       		.uleb128 0x1
 700 017b 9C       		.byte	0x9c
 701 017c A2010000 		.4byte	0x1a2
 702 0180 07       		.uleb128 0x7
 703 0181 81000000 		.4byte	.LASF21
 704 0185 01       		.byte	0x1
 705 0186 BA       		.byte	0xba
 706 0187 6B000000 		.4byte	0x6b
 707 018b 26000000 		.4byte	.LLST2
 708 018f 08       		.uleb128 0x8
 709 0190 06000000 		.4byte	.LVL7
 710 0194 B0020000 		.4byte	0x2b0
 711 0198 08       		.uleb128 0x8
 712 0199 3A000000 		.4byte	.LVL8
 713 019d BB020000 		.4byte	0x2bb
 714 01a1 00       		.byte	0
 715 01a2 0D       		.uleb128 0xd
 716 01a3 0C000000 		.4byte	.LASF24
 717 01a7 01       		.byte	0x1
 718 01a8 2001     		.2byte	0x120
 719 01aa 00000000 		.4byte	.LFB4
 720 01ae 34000000 		.4byte	.LFE4-.LFB4
 721 01b2 01       		.uleb128 0x1
 722 01b3 9C       		.byte	0x9c
 723 01b4 EB010000 		.4byte	0x1eb
 724 01b8 0E       		.uleb128 0xe
 725 01b9 33010000 		.4byte	.LASF35
 726 01bd 01       		.byte	0x1
 727 01be 2001     		.2byte	0x120
 728 01c0 83000000 		.4byte	0x83
 729 01c4 39000000 		.4byte	.LLST3
 730 01c8 0F       		.uleb128 0xf
 731 01c9 81000000 		.4byte	.LASF21
 732 01cd 01       		.byte	0x1
 733 01ce 2201     		.2byte	0x122
 734 01d0 6B000000 		.4byte	0x6b
 735 01d4 65000000 		.4byte	.LLST4
 736 01d8 08       		.uleb128 0x8
 737 01d9 08000000 		.4byte	.LVL10
 738 01dd B0020000 		.4byte	0x2b0
 739 01e1 08       		.uleb128 0x8
 740 01e2 28000000 		.4byte	.LVL11
 741 01e6 BB020000 		.4byte	0x2bb
 742 01ea 00       		.byte	0
 743 01eb 10       		.uleb128 0x10
 744 01ec 3C010000 		.4byte	.LASF36
 745 01f0 01       		.byte	0x1
 746 01f1 3C01     		.2byte	0x13c
 747 01f3 83000000 		.4byte	0x83
 748 01f7 00000000 		.4byte	.LFB5
 749 01fb 28000000 		.4byte	.LFE5-.LFB5
 750 01ff 01       		.uleb128 0x1
 751 0200 9C       		.byte	0x9c
 752 0201 16020000 		.4byte	0x216
 753 0205 0F       		.uleb128 0xf
 754 0206 2C010000 		.4byte	.LASF25
ARM GAS  C:\Users\Sil\AppData\Local\Temp\cc2CYAaq.s 			page 22


 755 020a 01       		.byte	0x1
 756 020b 3E01     		.2byte	0x13e
 757 020d 83000000 		.4byte	0x83
 758 0211 78000000 		.4byte	.LLST5
 759 0215 00       		.byte	0
 760 0216 0D       		.uleb128 0xd
 761 0217 9E020000 		.4byte	.LASF26
 762 021b 01       		.byte	0x1
 763 021c 6601     		.2byte	0x166
 764 021e 00000000 		.4byte	.LFB6
 765 0222 38000000 		.4byte	.LFE6-.LFB6
 766 0226 01       		.uleb128 0x1
 767 0227 9C       		.byte	0x9c
 768 0228 4F020000 		.4byte	0x24f
 769 022c 0F       		.uleb128 0xf
 770 022d 81000000 		.4byte	.LASF21
 771 0231 01       		.byte	0x1
 772 0232 6801     		.2byte	0x168
 773 0234 6B000000 		.4byte	0x6b
 774 0238 BB000000 		.4byte	.LLST6
 775 023c 08       		.uleb128 0x8
 776 023d 06000000 		.4byte	.LVL18
 777 0241 B0020000 		.4byte	0x2b0
 778 0245 08       		.uleb128 0x8
 779 0246 28000000 		.4byte	.LVL19
 780 024a BB020000 		.4byte	0x2bb
 781 024e 00       		.byte	0
 782 024f 06       		.uleb128 0x6
 783 0250 A8000000 		.4byte	.LASF27
 784 0254 01       		.byte	0x1
 785 0255 F3       		.byte	0xf3
 786 0256 00000000 		.4byte	.LFB3
 787 025a 30000000 		.4byte	.LFE3-.LFB3
 788 025e 01       		.uleb128 0x1
 789 025f 9C       		.byte	0x9c
 790 0260 77020000 		.4byte	0x277
 791 0264 08       		.uleb128 0x8
 792 0265 06000000 		.4byte	.LVL20
 793 0269 B0020000 		.4byte	0x2b0
 794 026d 08       		.uleb128 0x8
 795 026e 1A000000 		.4byte	.LVL21
 796 0272 16020000 		.4byte	0x216
 797 0276 00       		.byte	0
 798 0277 0D       		.uleb128 0xd
 799 0278 BB000000 		.4byte	.LASF28
 800 027c 01       		.byte	0x1
 801 027d 9601     		.2byte	0x196
 802 027f 00000000 		.4byte	.LFB7
 803 0283 30000000 		.4byte	.LFE7-.LFB7
 804 0287 01       		.uleb128 0x1
 805 0288 9C       		.byte	0x9c
 806 0289 B0020000 		.4byte	0x2b0
 807 028d 0F       		.uleb128 0xf
 808 028e 81000000 		.4byte	.LASF21
 809 0292 01       		.byte	0x1
 810 0293 9801     		.2byte	0x198
 811 0295 6B000000 		.4byte	0x6b
ARM GAS  C:\Users\Sil\AppData\Local\Temp\cc2CYAaq.s 			page 23


 812 0299 CE000000 		.4byte	.LLST7
 813 029d 08       		.uleb128 0x8
 814 029e 06000000 		.4byte	.LVL22
 815 02a2 B0020000 		.4byte	0x2b0
 816 02a6 08       		.uleb128 0x8
 817 02a7 24000000 		.4byte	.LVL23
 818 02ab BB020000 		.4byte	0x2bb
 819 02af 00       		.byte	0
 820 02b0 11       		.uleb128 0x11
 821 02b1 DB000000 		.4byte	.LASF29
 822 02b5 DB000000 		.4byte	.LASF29
 823 02b9 03       		.byte	0x3
 824 02ba E5       		.byte	0xe5
 825 02bb 11       		.uleb128 0x11
 826 02bc FF000000 		.4byte	.LASF30
 827 02c0 FF000000 		.4byte	.LASF30
 828 02c4 03       		.byte	0x3
 829 02c5 E6       		.byte	0xe6
 830 02c6 11       		.uleb128 0x11
 831 02c7 15010000 		.4byte	.LASF31
 832 02cb 15010000 		.4byte	.LASF31
 833 02cf 03       		.byte	0x3
 834 02d0 6B       		.byte	0x6b
 835 02d1 00       		.byte	0
 836              		.section	.debug_abbrev,"",%progbits
 837              	.Ldebug_abbrev0:
 838 0000 01       		.uleb128 0x1
 839 0001 11       		.uleb128 0x11
 840 0002 01       		.byte	0x1
 841 0003 25       		.uleb128 0x25
 842 0004 0E       		.uleb128 0xe
 843 0005 13       		.uleb128 0x13
 844 0006 0B       		.uleb128 0xb
 845 0007 03       		.uleb128 0x3
 846 0008 0E       		.uleb128 0xe
 847 0009 1B       		.uleb128 0x1b
 848 000a 0E       		.uleb128 0xe
 849 000b 55       		.uleb128 0x55
 850 000c 17       		.uleb128 0x17
 851 000d 11       		.uleb128 0x11
 852 000e 01       		.uleb128 0x1
 853 000f 10       		.uleb128 0x10
 854 0010 17       		.uleb128 0x17
 855 0011 00       		.byte	0
 856 0012 00       		.byte	0
 857 0013 02       		.uleb128 0x2
 858 0014 24       		.uleb128 0x24
 859 0015 00       		.byte	0
 860 0016 0B       		.uleb128 0xb
 861 0017 0B       		.uleb128 0xb
 862 0018 3E       		.uleb128 0x3e
 863 0019 0B       		.uleb128 0xb
 864 001a 03       		.uleb128 0x3
 865 001b 0E       		.uleb128 0xe
 866 001c 00       		.byte	0
 867 001d 00       		.byte	0
 868 001e 03       		.uleb128 0x3
ARM GAS  C:\Users\Sil\AppData\Local\Temp\cc2CYAaq.s 			page 24


 869 001f 24       		.uleb128 0x24
 870 0020 00       		.byte	0
 871 0021 0B       		.uleb128 0xb
 872 0022 0B       		.uleb128 0xb
 873 0023 3E       		.uleb128 0x3e
 874 0024 0B       		.uleb128 0xb
 875 0025 03       		.uleb128 0x3
 876 0026 08       		.uleb128 0x8
 877 0027 00       		.byte	0
 878 0028 00       		.byte	0
 879 0029 04       		.uleb128 0x4
 880 002a 16       		.uleb128 0x16
 881 002b 00       		.byte	0
 882 002c 03       		.uleb128 0x3
 883 002d 0E       		.uleb128 0xe
 884 002e 3A       		.uleb128 0x3a
 885 002f 0B       		.uleb128 0xb
 886 0030 3B       		.uleb128 0x3b
 887 0031 05       		.uleb128 0x5
 888 0032 49       		.uleb128 0x49
 889 0033 13       		.uleb128 0x13
 890 0034 00       		.byte	0
 891 0035 00       		.byte	0
 892 0036 05       		.uleb128 0x5
 893 0037 35       		.uleb128 0x35
 894 0038 00       		.byte	0
 895 0039 49       		.uleb128 0x49
 896 003a 13       		.uleb128 0x13
 897 003b 00       		.byte	0
 898 003c 00       		.byte	0
 899 003d 06       		.uleb128 0x6
 900 003e 2E       		.uleb128 0x2e
 901 003f 01       		.byte	0x1
 902 0040 3F       		.uleb128 0x3f
 903 0041 19       		.uleb128 0x19
 904 0042 03       		.uleb128 0x3
 905 0043 0E       		.uleb128 0xe
 906 0044 3A       		.uleb128 0x3a
 907 0045 0B       		.uleb128 0xb
 908 0046 3B       		.uleb128 0x3b
 909 0047 0B       		.uleb128 0xb
 910 0048 27       		.uleb128 0x27
 911 0049 19       		.uleb128 0x19
 912 004a 11       		.uleb128 0x11
 913 004b 01       		.uleb128 0x1
 914 004c 12       		.uleb128 0x12
 915 004d 06       		.uleb128 0x6
 916 004e 40       		.uleb128 0x40
 917 004f 18       		.uleb128 0x18
 918 0050 9742     		.uleb128 0x2117
 919 0052 19       		.uleb128 0x19
 920 0053 01       		.uleb128 0x1
 921 0054 13       		.uleb128 0x13
 922 0055 00       		.byte	0
 923 0056 00       		.byte	0
 924 0057 07       		.uleb128 0x7
 925 0058 34       		.uleb128 0x34
ARM GAS  C:\Users\Sil\AppData\Local\Temp\cc2CYAaq.s 			page 25


 926 0059 00       		.byte	0
 927 005a 03       		.uleb128 0x3
 928 005b 0E       		.uleb128 0xe
 929 005c 3A       		.uleb128 0x3a
 930 005d 0B       		.uleb128 0xb
 931 005e 3B       		.uleb128 0x3b
 932 005f 0B       		.uleb128 0xb
 933 0060 49       		.uleb128 0x49
 934 0061 13       		.uleb128 0x13
 935 0062 02       		.uleb128 0x2
 936 0063 17       		.uleb128 0x17
 937 0064 00       		.byte	0
 938 0065 00       		.byte	0
 939 0066 08       		.uleb128 0x8
 940 0067 898201   		.uleb128 0x4109
 941 006a 00       		.byte	0
 942 006b 11       		.uleb128 0x11
 943 006c 01       		.uleb128 0x1
 944 006d 31       		.uleb128 0x31
 945 006e 13       		.uleb128 0x13
 946 006f 00       		.byte	0
 947 0070 00       		.byte	0
 948 0071 09       		.uleb128 0x9
 949 0072 34       		.uleb128 0x34
 950 0073 00       		.byte	0
 951 0074 03       		.uleb128 0x3
 952 0075 0E       		.uleb128 0xe
 953 0076 3A       		.uleb128 0x3a
 954 0077 0B       		.uleb128 0xb
 955 0078 3B       		.uleb128 0x3b
 956 0079 0B       		.uleb128 0xb
 957 007a 49       		.uleb128 0x49
 958 007b 13       		.uleb128 0x13
 959 007c 02       		.uleb128 0x2
 960 007d 18       		.uleb128 0x18
 961 007e 00       		.byte	0
 962 007f 00       		.byte	0
 963 0080 0A       		.uleb128 0xa
 964 0081 898201   		.uleb128 0x4109
 965 0084 01       		.byte	0x1
 966 0085 11       		.uleb128 0x11
 967 0086 01       		.uleb128 0x1
 968 0087 31       		.uleb128 0x31
 969 0088 13       		.uleb128 0x13
 970 0089 01       		.uleb128 0x1
 971 008a 13       		.uleb128 0x13
 972 008b 00       		.byte	0
 973 008c 00       		.byte	0
 974 008d 0B       		.uleb128 0xb
 975 008e 8A8201   		.uleb128 0x410a
 976 0091 00       		.byte	0
 977 0092 02       		.uleb128 0x2
 978 0093 18       		.uleb128 0x18
 979 0094 9142     		.uleb128 0x2111
 980 0096 18       		.uleb128 0x18
 981 0097 00       		.byte	0
 982 0098 00       		.byte	0
ARM GAS  C:\Users\Sil\AppData\Local\Temp\cc2CYAaq.s 			page 26


 983 0099 0C       		.uleb128 0xc
 984 009a 898201   		.uleb128 0x4109
 985 009d 01       		.byte	0x1
 986 009e 11       		.uleb128 0x11
 987 009f 01       		.uleb128 0x1
 988 00a0 31       		.uleb128 0x31
 989 00a1 13       		.uleb128 0x13
 990 00a2 00       		.byte	0
 991 00a3 00       		.byte	0
 992 00a4 0D       		.uleb128 0xd
 993 00a5 2E       		.uleb128 0x2e
 994 00a6 01       		.byte	0x1
 995 00a7 3F       		.uleb128 0x3f
 996 00a8 19       		.uleb128 0x19
 997 00a9 03       		.uleb128 0x3
 998 00aa 0E       		.uleb128 0xe
 999 00ab 3A       		.uleb128 0x3a
 1000 00ac 0B       		.uleb128 0xb
 1001 00ad 3B       		.uleb128 0x3b
 1002 00ae 05       		.uleb128 0x5
 1003 00af 27       		.uleb128 0x27
 1004 00b0 19       		.uleb128 0x19
 1005 00b1 11       		.uleb128 0x11
 1006 00b2 01       		.uleb128 0x1
 1007 00b3 12       		.uleb128 0x12
 1008 00b4 06       		.uleb128 0x6
 1009 00b5 40       		.uleb128 0x40
 1010 00b6 18       		.uleb128 0x18
 1011 00b7 9742     		.uleb128 0x2117
 1012 00b9 19       		.uleb128 0x19
 1013 00ba 01       		.uleb128 0x1
 1014 00bb 13       		.uleb128 0x13
 1015 00bc 00       		.byte	0
 1016 00bd 00       		.byte	0
 1017 00be 0E       		.uleb128 0xe
 1018 00bf 05       		.uleb128 0x5
 1019 00c0 00       		.byte	0
 1020 00c1 03       		.uleb128 0x3
 1021 00c2 0E       		.uleb128 0xe
 1022 00c3 3A       		.uleb128 0x3a
 1023 00c4 0B       		.uleb128 0xb
 1024 00c5 3B       		.uleb128 0x3b
 1025 00c6 05       		.uleb128 0x5
 1026 00c7 49       		.uleb128 0x49
 1027 00c8 13       		.uleb128 0x13
 1028 00c9 02       		.uleb128 0x2
 1029 00ca 17       		.uleb128 0x17
 1030 00cb 00       		.byte	0
 1031 00cc 00       		.byte	0
 1032 00cd 0F       		.uleb128 0xf
 1033 00ce 34       		.uleb128 0x34
 1034 00cf 00       		.byte	0
 1035 00d0 03       		.uleb128 0x3
 1036 00d1 0E       		.uleb128 0xe
 1037 00d2 3A       		.uleb128 0x3a
 1038 00d3 0B       		.uleb128 0xb
 1039 00d4 3B       		.uleb128 0x3b
ARM GAS  C:\Users\Sil\AppData\Local\Temp\cc2CYAaq.s 			page 27


 1040 00d5 05       		.uleb128 0x5
 1041 00d6 49       		.uleb128 0x49
 1042 00d7 13       		.uleb128 0x13
 1043 00d8 02       		.uleb128 0x2
 1044 00d9 17       		.uleb128 0x17
 1045 00da 00       		.byte	0
 1046 00db 00       		.byte	0
 1047 00dc 10       		.uleb128 0x10
 1048 00dd 2E       		.uleb128 0x2e
 1049 00de 01       		.byte	0x1
 1050 00df 3F       		.uleb128 0x3f
 1051 00e0 19       		.uleb128 0x19
 1052 00e1 03       		.uleb128 0x3
 1053 00e2 0E       		.uleb128 0xe
 1054 00e3 3A       		.uleb128 0x3a
 1055 00e4 0B       		.uleb128 0xb
 1056 00e5 3B       		.uleb128 0x3b
 1057 00e6 05       		.uleb128 0x5
 1058 00e7 27       		.uleb128 0x27
 1059 00e8 19       		.uleb128 0x19
 1060 00e9 49       		.uleb128 0x49
 1061 00ea 13       		.uleb128 0x13
 1062 00eb 11       		.uleb128 0x11
 1063 00ec 01       		.uleb128 0x1
 1064 00ed 12       		.uleb128 0x12
 1065 00ee 06       		.uleb128 0x6
 1066 00ef 40       		.uleb128 0x40
 1067 00f0 18       		.uleb128 0x18
 1068 00f1 9742     		.uleb128 0x2117
 1069 00f3 19       		.uleb128 0x19
 1070 00f4 01       		.uleb128 0x1
 1071 00f5 13       		.uleb128 0x13
 1072 00f6 00       		.byte	0
 1073 00f7 00       		.byte	0
 1074 00f8 11       		.uleb128 0x11
 1075 00f9 2E       		.uleb128 0x2e
 1076 00fa 00       		.byte	0
 1077 00fb 3F       		.uleb128 0x3f
 1078 00fc 19       		.uleb128 0x19
 1079 00fd 3C       		.uleb128 0x3c
 1080 00fe 19       		.uleb128 0x19
 1081 00ff 6E       		.uleb128 0x6e
 1082 0100 0E       		.uleb128 0xe
 1083 0101 03       		.uleb128 0x3
 1084 0102 0E       		.uleb128 0xe
 1085 0103 3A       		.uleb128 0x3a
 1086 0104 0B       		.uleb128 0xb
 1087 0105 3B       		.uleb128 0x3b
 1088 0106 0B       		.uleb128 0xb
 1089 0107 00       		.byte	0
 1090 0108 00       		.byte	0
 1091 0109 00       		.byte	0
 1092              		.section	.debug_loc,"",%progbits
 1093              	.Ldebug_loc0:
 1094              	.LLST0:
 1095 0000 06000000 		.4byte	.LVL0
 1096 0004 15000000 		.4byte	.LVL1-1
ARM GAS  C:\Users\Sil\AppData\Local\Temp\cc2CYAaq.s 			page 28


 1097 0008 0100     		.2byte	0x1
 1098 000a 50       		.byte	0x50
 1099 000b 00000000 		.4byte	0
 1100 000f 00000000 		.4byte	0
 1101              	.LLST1:
 1102 0013 0A000000 		.4byte	.LVL3
 1103 0017 54000000 		.4byte	.LVL6
 1104 001b 0100     		.2byte	0x1
 1105 001d 54       		.byte	0x54
 1106 001e 00000000 		.4byte	0
 1107 0022 00000000 		.4byte	0
 1108              	.LLST2:
 1109 0026 06000000 		.4byte	.LVL7
 1110 002a 39000000 		.4byte	.LVL8-1
 1111 002e 0100     		.2byte	0x1
 1112 0030 50       		.byte	0x50
 1113 0031 00000000 		.4byte	0
 1114 0035 00000000 		.4byte	0
 1115              	.LLST3:
 1116 0039 00000000 		.4byte	.LVL9
 1117 003d 07000000 		.4byte	.LVL10-1
 1118 0041 0100     		.2byte	0x1
 1119 0043 50       		.byte	0x50
 1120 0044 07000000 		.4byte	.LVL10-1
 1121 0048 28000000 		.4byte	.LVL12
 1122 004c 0100     		.2byte	0x1
 1123 004e 54       		.byte	0x54
 1124 004f 28000000 		.4byte	.LVL12
 1125 0053 34000000 		.4byte	.LFE4
 1126 0057 0400     		.2byte	0x4
 1127 0059 F3       		.byte	0xf3
 1128 005a 01       		.uleb128 0x1
 1129 005b 50       		.byte	0x50
 1130 005c 9F       		.byte	0x9f
 1131 005d 00000000 		.4byte	0
 1132 0061 00000000 		.4byte	0
 1133              	.LLST4:
 1134 0065 08000000 		.4byte	.LVL10
 1135 0069 27000000 		.4byte	.LVL11-1
 1136 006d 0100     		.2byte	0x1
 1137 006f 50       		.byte	0x50
 1138 0070 00000000 		.4byte	0
 1139 0074 00000000 		.4byte	0
 1140              	.LLST5:
 1141 0078 00000000 		.4byte	.LVL13
 1142 007c 18000000 		.4byte	.LVL14
 1143 0080 0200     		.2byte	0x2
 1144 0082 30       		.byte	0x30
 1145 0083 9F       		.byte	0x9f
 1146 0084 18000000 		.4byte	.LVL14
 1147 0088 1C000000 		.4byte	.LVL15
 1148 008c 0200     		.2byte	0x2
 1149 008e 32       		.byte	0x32
 1150 008f 9F       		.byte	0x9f
 1151 0090 1C000000 		.4byte	.LVL15
 1152 0094 20000000 		.4byte	.LVL16
 1153 0098 0200     		.2byte	0x2
ARM GAS  C:\Users\Sil\AppData\Local\Temp\cc2CYAaq.s 			page 29


 1154 009a 33       		.byte	0x33
 1155 009b 9F       		.byte	0x9f
 1156 009c 20000000 		.4byte	.LVL16
 1157 00a0 22000000 		.4byte	.LVL17
 1158 00a4 0200     		.2byte	0x2
 1159 00a6 30       		.byte	0x30
 1160 00a7 9F       		.byte	0x9f
 1161 00a8 22000000 		.4byte	.LVL17
 1162 00ac 28000000 		.4byte	.LFE5
 1163 00b0 0100     		.2byte	0x1
 1164 00b2 50       		.byte	0x50
 1165 00b3 00000000 		.4byte	0
 1166 00b7 00000000 		.4byte	0
 1167              	.LLST6:
 1168 00bb 06000000 		.4byte	.LVL18
 1169 00bf 27000000 		.4byte	.LVL19-1
 1170 00c3 0100     		.2byte	0x1
 1171 00c5 50       		.byte	0x50
 1172 00c6 00000000 		.4byte	0
 1173 00ca 00000000 		.4byte	0
 1174              	.LLST7:
 1175 00ce 06000000 		.4byte	.LVL22
 1176 00d2 23000000 		.4byte	.LVL23-1
 1177 00d6 0100     		.2byte	0x1
 1178 00d8 50       		.byte	0x50
 1179 00d9 00000000 		.4byte	0
 1180 00dd 00000000 		.4byte	0
 1181              		.section	.debug_aranges,"",%progbits
 1182 0000 54000000 		.4byte	0x54
 1183 0004 0200     		.2byte	0x2
 1184 0006 00000000 		.4byte	.Ldebug_info0
 1185 000a 04       		.byte	0x4
 1186 000b 00       		.byte	0
 1187 000c 0000     		.2byte	0
 1188 000e 0000     		.2byte	0
 1189 0010 00000000 		.4byte	.LFB0
 1190 0014 1C000000 		.4byte	.LFE0-.LFB0
 1191 0018 00000000 		.4byte	.LFB1
 1192 001c 6C000000 		.4byte	.LFE1-.LFB1
 1193 0020 00000000 		.4byte	.LFB2
 1194 0024 50000000 		.4byte	.LFE2-.LFB2
 1195 0028 00000000 		.4byte	.LFB4
 1196 002c 34000000 		.4byte	.LFE4-.LFB4
 1197 0030 00000000 		.4byte	.LFB5
 1198 0034 28000000 		.4byte	.LFE5-.LFB5
 1199 0038 00000000 		.4byte	.LFB6
 1200 003c 38000000 		.4byte	.LFE6-.LFB6
 1201 0040 00000000 		.4byte	.LFB3
 1202 0044 30000000 		.4byte	.LFE3-.LFB3
 1203 0048 00000000 		.4byte	.LFB7
 1204 004c 30000000 		.4byte	.LFE7-.LFB7
 1205 0050 00000000 		.4byte	0
 1206 0054 00000000 		.4byte	0
 1207              		.section	.debug_ranges,"",%progbits
 1208              	.Ldebug_ranges0:
 1209 0000 00000000 		.4byte	.LFB0
 1210 0004 1C000000 		.4byte	.LFE0
ARM GAS  C:\Users\Sil\AppData\Local\Temp\cc2CYAaq.s 			page 30


 1211 0008 00000000 		.4byte	.LFB1
 1212 000c 6C000000 		.4byte	.LFE1
 1213 0010 00000000 		.4byte	.LFB2
 1214 0014 50000000 		.4byte	.LFE2
 1215 0018 00000000 		.4byte	.LFB4
 1216 001c 34000000 		.4byte	.LFE4
 1217 0020 00000000 		.4byte	.LFB5
 1218 0024 28000000 		.4byte	.LFE5
 1219 0028 00000000 		.4byte	.LFB6
 1220 002c 38000000 		.4byte	.LFE6
 1221 0030 00000000 		.4byte	.LFB3
 1222 0034 30000000 		.4byte	.LFE3
 1223 0038 00000000 		.4byte	.LFB7
 1224 003c 30000000 		.4byte	.LFE7
 1225 0040 00000000 		.4byte	0
 1226 0044 00000000 		.4byte	0
 1227              		.section	.debug_line,"",%progbits
 1228              	.Ldebug_line0:
 1229 0000 31010000 		.section	.debug_str,"MS",%progbits,1
 1229      02004C00 
 1229      00000201 
 1229      FB0E0D00 
 1229      01010101 
 1230              	.LASF15:
 1231 0000 72656731 		.ascii	"reg16\000"
 1231      3600
 1232              	.LASF16:
 1233 0006 72656733 		.ascii	"reg32\000"
 1233      3200
 1234              	.LASF24:
 1235 000c 43795379 		.ascii	"CySysPmSetWakeupPolarity\000"
 1235      73506D53 
 1235      65745761 
 1235      6B657570 
 1235      506F6C61 
 1236              	.LASF19:
 1237 0025 43795379 		.ascii	"CySysPmSleep\000"
 1237      73506D53 
 1237      6C656570 
 1237      00
 1238              	.LASF3:
 1239 0032 73686F72 		.ascii	"short unsigned int\000"
 1239      7420756E 
 1239      7369676E 
 1239      65642069 
 1239      6E7400
 1240              	.LASF23:
 1241 0045 43795379 		.ascii	"CySysPmHibernate\000"
 1241      73506D48 
 1241      69626572 
 1241      6E617465 
 1241      00
 1242              	.LASF12:
 1243 0056 666C6F61 		.ascii	"float\000"
 1243      7400
 1244              	.LASF7:
 1245 005c 6C6F6E67 		.ascii	"long long unsigned int\000"
ARM GAS  C:\Users\Sil\AppData\Local\Temp\cc2CYAaq.s 			page 31


 1245      206C6F6E 
 1245      6720756E 
 1245      7369676E 
 1245      65642069 
 1246              	.LASF1:
 1247 0073 756E7369 		.ascii	"unsigned char\000"
 1247      676E6564 
 1247      20636861 
 1247      7200
 1248              	.LASF21:
 1249 0081 696E7465 		.ascii	"interruptState\000"
 1249      72727570 
 1249      74537461 
 1249      746500
 1250              	.LASF5:
 1251 0090 6C6F6E67 		.ascii	"long unsigned int\000"
 1251      20756E73 
 1251      69676E65 
 1251      6420696E 
 1251      7400
 1252              	.LASF9:
 1253 00a2 75696E74 		.ascii	"uint8\000"
 1253      3800
 1254              	.LASF27:
 1255 00a8 43795379 		.ascii	"CySysPmStop\000"
 1255      73506D53 
 1255      746F7000 
 1256              	.LASF13:
 1257 00b4 646F7562 		.ascii	"double\000"
 1257      6C6500
 1258              	.LASF28:
 1259 00bb 43795379 		.ascii	"CySysPmUnfreezeIo\000"
 1259      73506D55 
 1259      6E667265 
 1259      657A6549 
 1259      6F00
 1260              	.LASF10:
 1261 00cd 75696E74 		.ascii	"uint16\000"
 1261      313600
 1262              	.LASF11:
 1263 00d4 75696E74 		.ascii	"uint32\000"
 1263      333200
 1264              	.LASF29:
 1265 00db 4379456E 		.ascii	"CyEnterCriticalSection\000"
 1265      74657243 
 1265      72697469 
 1265      63616C53 
 1265      65637469 
 1266              	.LASF8:
 1267 00f2 756E7369 		.ascii	"unsigned int\000"
 1267      676E6564 
 1267      20696E74 
 1267      00
 1268              	.LASF30:
 1269 00ff 43794578 		.ascii	"CyExitCriticalSection\000"
 1269      69744372 
 1269      69746963 
ARM GAS  C:\Users\Sil\AppData\Local\Temp\cc2CYAaq.s 			page 32


 1269      616C5365 
 1269      6374696F 
 1270              	.LASF31:
 1271 0115 43795379 		.ascii	"CySysClkWriteSysclkDiv\000"
 1271      73436C6B 
 1271      57726974 
 1271      65537973 
 1271      636C6B44 
 1272              	.LASF25:
 1273 012c 72656173 		.ascii	"reason\000"
 1273      6F6E00
 1274              	.LASF35:
 1275 0133 706F6C61 		.ascii	"polarity\000"
 1275      72697479 
 1275      00
 1276              	.LASF36:
 1277 013c 43795379 		.ascii	"CySysPmGetResetReason\000"
 1277      73506D47 
 1277      65745265 
 1277      73657452 
 1277      6561736F 
 1278              	.LASF32:
 1279 0152 474E5520 		.ascii	"GNU C11 5.4.1 20160609 (release) [ARM/embedded-5-br"
 1279      43313120 
 1279      352E342E 
 1279      31203230 
 1279      31363036 
 1280 0185 616E6368 		.ascii	"anch revision 237715] -mcpu=cortex-m0 -mthumb -g -O"
 1280      20726576 
 1280      6973696F 
 1280      6E203233 
 1280      37373135 
 1281 01b8 67202D66 		.ascii	"g -ffunction-sections -ffat-lto-objects\000"
 1281      66756E63 
 1281      74696F6E 
 1281      2D736563 
 1281      74696F6E 
 1282              	.LASF18:
 1283 01e0 73697A65 		.ascii	"sizetype\000"
 1283      74797065 
 1283      00
 1284              	.LASF34:
 1285 01e9 433A5C55 		.ascii	"C:\\Users\\Sil\\school\\fpga\\spipsoc\\spistest2\\s"
 1285      73657273 
 1285      5C53696C 
 1285      5C736368 
 1285      6F6F6C5C 
 1286 0215 70697374 		.ascii	"pistest2.cydsn\000"
 1286      65737432 
 1286      2E637964 
 1286      736E00
 1287              	.LASF6:
 1288 0224 6C6F6E67 		.ascii	"long long int\000"
 1288      206C6F6E 
 1288      6720696E 
 1288      7400
 1289              	.LASF14:
ARM GAS  C:\Users\Sil\AppData\Local\Temp\cc2CYAaq.s 			page 33


 1290 0232 63686172 		.ascii	"char\000"
 1290      00
 1291              	.LASF22:
 1292 0237 636C6B53 		.ascii	"clkSelectReg\000"
 1292      656C6563 
 1292      74526567 
 1292      00
 1293              	.LASF2:
 1294 0244 73686F72 		.ascii	"short int\000"
 1294      7420696E 
 1294      7400
 1295              	.LASF20:
 1296 024e 43795379 		.ascii	"CySysPmDeepSleep\000"
 1296      73506D44 
 1296      65657053 
 1296      6C656570 
 1296      00
 1297              	.LASF4:
 1298 025f 6C6F6E67 		.ascii	"long int\000"
 1298      20696E74 
 1298      00
 1299              	.LASF33:
 1300 0268 47656E65 		.ascii	"Generated_Source\\PSoC4\\cyPm.c\000"
 1300      72617465 
 1300      645F536F 
 1300      75726365 
 1300      5C50536F 
 1301              	.LASF17:
 1302 0286 6C6F6E67 		.ascii	"long double\000"
 1302      20646F75 
 1302      626C6500 
 1303              	.LASF0:
 1304 0292 7369676E 		.ascii	"signed char\000"
 1304      65642063 
 1304      68617200 
 1305              	.LASF26:
 1306 029e 43795379 		.ascii	"CySysPmFreezeIo\000"
 1306      73506D46 
 1306      7265657A 
 1306      65496F00 
 1307              		.ident	"GCC: (GNU Tools for ARM Embedded Processors) 5.4.1 20160609 (release) [ARM/embedded-5-bran
